Conv_Engine/proc_img_mem.vcd
$date
	Thu Jul 02 16:38:42 2026
$end
$version
	Icarus Verilog
$end
$timescale
	1ps
$end
$scope module proc_img_mem_tb $end
$var wire 1 ! wr_valid $end
$var wire 72 " window [71:0] $end
$var wire 1 # win_valid $end
$var wire 1 $ win_set_done $end
$var wire 144 % weights [143:0] $end
$var wire 1 & rows_rdy $end
$var wire 8 ' row_in_stream [7:0] $end
$var wire 128 ( row_c_reg [127:0] $end
$var wire 128 ) row_b_reg [127:0] $end
$var wire 128 * row_a_reg [127:0] $end
$var wire 36 + proc_img_rd_data [35:0] $end
$var wire 1 , proc_img_mem_full $end
$var wire 1 - pool_done $end
$var wire 1 . pixel_valid $end
$var wire 1 / pixel_req $end
$var wire 8 0 pixel_in [7:0] $end
$var wire 1 1 next_win_req $end
$var wire 1 2 max_valid $end
$var wire 36 3 max_out [35:0] $end
$var wire 8 4 img_rd_addr [7:0] $end
$var wire 1 5 ft_rd_valid $end
$var wire 1 6 ft_rd_data_valid $end
$var wire 36 7 ft_rd_data [35:0] $end
$var wire 8 8 ft_rd_addr [7:0] $end
$var wire 1 9 ft_mem_full $end
$var wire 36 : final_sum [35:0] $end
$var wire 144 ; converted_window [143:0] $end
$var wire 36 < conv_sum [35:0] $end
$var wire 16 = bias [15:0] $end
$var reg 1 > clk $end
$var reg 1 ? lb_st $end
$var reg 8 @ proc_img_rd_addr [7:0] $end
$var reg 1 A proc_img_rd_valid $end
$var reg 1 B rst $end
$var integer 32 C val_no [31:0] $end
$scope module tb_ReLU $end
$var wire 36 D in [35:0] $end
$var reg 36 E out [35:0] $end
$upscope $end
$scope module tb_data_converter $end
$var wire 72 F window [71:0] $end
$var reg 144 G converted_window [143:0] $end
$var integer 32 H i [31:0] $end
$upscope $end
$scope module tb_feature_mat_mem $end
$var wire 1 > clk $end
$var wire 1 B rst $end
$var wire 36 I wr_data [35:0] $end
$var wire 1 ! wr_valid $end
$var wire 1 5 rd_valid $end
$var wire 8 J rd_addr [7:0] $end
$var reg 1 9 mem_full $end
$var reg 36 K rd_data [35:0] $end
$var reg 1 6 rd_data_valid $end
$var reg 8 L wr_addr [7:0] $end
$var integer 32 M i [31:0] $end
$upscope $end
$scope module tb_lb $end
$var wire 1 > clk $end
$var wire 1 ? lb_st $end
$var wire 1 B rst $end
$var wire 1 $ win_set_done $end
$var wire 8 N row_in_stream [7:0] $end
$var wire 1 . pixel_valid $end
$var parameter 32 O LOAD_ABC $end
$var parameter 32 P LOAD_D $end
$var parameter 32 Q SHIFT_ROWS $end
$var parameter 32 R WAIT_FOR_EVENT $end
$var reg 1 S img_done $end
$var reg 2 T next_state [1:0] $end
$var reg 1 / pixel_req $end
$var reg 6 U recv_cnt [5:0] $end
$var reg 6 V req_cnt [5:0] $end
$var reg 128 W row_a_reg [127:0] $end
$var reg 1 X row_abc_valid $end
$var reg 128 Y row_b_reg [127:0] $end
$var reg 128 Z row_c_reg [127:0] $end
$var reg 4 [ row_cnt [3:0] $end
$var reg 128 \ row_d_reg [127:0] $end
$var reg 1 ] row_d_valid $end
$var reg 1 & rows_rdy $end
$var reg 2 ^ state [1:0] $end
$var reg 1 _ win_done_latch $end
$var integer 32 ` i [31:0] $end
$upscope $end
$scope module tb_mac $end
$var wire 1 > clk $end
$var wire 144 a pixel_win [143:0] $end
$var wire 1 B rst $end
$var wire 1 # win_valid $end
$var wire 144 b weights [143:0] $end
$var wire 36 c mac2_sum [35:0] $end
$var wire 36 d mac1_sum [35:0] $end
$var wire 36 e mac0_sum [35:0] $end
$var wire 16 f bias [15:0] $end
$var parameter 32 g DONE $end
$var parameter 32 h IDLE $end
$var parameter 32 i LOAD0 $end
$var parameter 32 j LOAD1 $end
$var parameter 32 k LOAD2 $end
$var parameter 32 l SUM $end
$var parameter 32 m WAIT $end
$var reg 1 n clear $end
$var reg 36 o conv_sum [35:0] $end
$var reg 16 p mac0_pixel [15:0] $end
$var reg 1 q mac0_valid_in $end
$var reg 16 r mac0_weight [15:0] $end
$var reg 16 s mac1_pixel [15:0] $end
$var reg 1 t mac1_valid_in $end
$var reg 16 u mac1_weight [15:0] $end
$var reg 16 v mac2_pixel [15:0] $end
$var reg 1 w mac2_valid_in $end
$var reg 16 x mac2_weight [15:0] $end
$var reg 3 y next_state [2:0] $end
$var reg 1 1 next_win_req $end
$var reg 3 z state [2:0] $end
$var reg 1 ! wr_valid $end
$scope module mac0 $end
$var wire 1 n clear $end
$var wire 1 > clk $end
$var wire 16 { pixel [15:0] $end
$var wire 1 B rst $end
$var wire 36 | sum [35:0] $end
$var wire 1 q valid_in $end
$var wire 16 } weight [15:0] $end
$var reg 36 ~ sum_reg [35:0] $end
$upscope $end
$scope module mac1 $end
$var wire 1 n clear $end
$var wire 1 > clk $end
$var wire 16 !" pixel [15:0] $end
$var wire 1 B rst $end
$var wire 36 "" sum [35:0] $end
$var wire 1 t valid_in $end
$var wire 16 #" weight [15:0] $end
$var reg 36 $" sum_reg [35:0] $end
$upscope $end
$scope module mac2 $end
$var wire 1 n clear $end
$var wire 1 > clk $end
$var wire 16 %" pixel [15:0] $end
$var wire 1 B rst $end
$var wire 36 &" sum [35:0] $end
$var wire 1 w valid_in $end
$var wire 16 '" weight [15:0] $end
$var reg 36 (" sum_reg [35:0] $end
$upscope $end
$upscope $end
$scope module tb_max_pool $end
$var wire 1 > clk $end
$var wire 36 )" feature_data [35:0] $end
$var wire 1 6 feature_valid $end
$var wire 1 B rst $end
$var wire 36 *" next_max [35:0] $end
$var reg 36 +" current_max [35:0] $end
$var reg 36 ," max_out [35:0] $end
$var reg 1 2 max_valid $end
$var reg 3 -" sample_count [2:0] $end
$upscope $end
$scope module tb_mem $end
$var wire 1 > clk $end
$var wire 1 B rst $end
$var wire 8 ." rd_addr [7:0] $end
$var parameter 112 /" FILE_NAME $end
$var reg 8 0" pixel_out [7:0] $end
$upscope $end
$scope module tb_pool_addr_gen $end
$var wire 1 > clk $end
$var wire 1 9 ft_mem_full $end
$var wire 1 B rst $end
$var wire 8 1" base_addr [7:0] $end
$var parameter 32 2" PHASE0 $end
$var parameter 32 3" PHASE1 $end
$var parameter 32 4" PHASE2 $end
$var parameter 32 5" PHASE3 $end
$var parameter 32 6" WAIT_STATE $end
$var reg 4 7" phase [3:0] $end
$var reg 4 8" pool_col [3:0] $end
$var reg 1 - pool_done $end
$var reg 4 9" pool_row [3:0] $end
$var reg 8 :" rd_addr [7:0] $end
$var reg 1 5 rd_valid $end
$upscope $end
$scope module tb_proc_img_mem $end
$var wire 1 > clk $end
$var wire 8 ;" rd_addr [7:0] $end
$var wire 1 A rd_valid $end
$var wire 1 B rst $end
$var wire 36 <" wr_data [35:0] $end
$var wire 1 2 wr_valid $end
$var reg 1 , mem_full $end
$var reg 36 =" rd_data [35:0] $end
$var reg 7 >" wr_addr [6:0] $end
$var integer 32 ?" i [31:0] $end
$upscope $end
$scope module tb_rdr $end
$var wire 1 > clk $end
$var wire 8 @" pixel_in [7:0] $end
$var wire 1 / pixel_req $end
$var wire 1 B rst $end
$var reg 8 A" pixel_out [7:0] $end
$var reg 1 . pixel_valid $end
$var reg 8 B" rd_addr [7:0] $end
$var reg 1 C" valid_pipe $end
$upscope $end
$scope module tb_weight_memory $end
$var parameter 64 D" BIAS_FILE_NAME $end
$var parameter 88 E" WT_FILE_NAME $end
$var reg 16 F" bias [15:0] $end
$var reg 144 G" weights [143:0] $end
$var integer 32 H" i [31:0] $end
$upscope $end
$scope module tb_win_gen $end
$var wire 1 > clk $end
$var wire 1 1 next_win_req $end
$var wire 128 I" row_a_reg [127:0] $end
$var wire 128 J" row_b_reg [127:0] $end
$var wire 128 K" row_c_reg [127:0] $end
$var wire 1 & rows_rdy $end
$var wire 1 B rst $end
$var wire 4 L" current_i [3:0] $end
$var reg 4 M" i [3:0] $end
$var reg 1 N" processing $end
$var reg 1 O" wait_for_mac_req $end
$var reg 1 $ win_set_done $end
$var reg 1 # win_valid $end
$var reg 72 P" window [71:0] $end
$upscope $end
$upscope $end
$enddefinitions $end
$comment Show the parameter values. $end
$dumpall
b111011101100101011010010110011101101000011101000111001100101110011011010110010101101101 E"
b110001001101001011000010111001100101110011011010110010101101101 D"
b100 6"
b11 5"
b10 4"
b1 3"
b0 2"
b110100101101101011000010110011101100101010111110110011001101001011011000110010100101110011011010110010101101101 /"
b100 m
b101 l
b11 k
b10 j
b1 i
b0 h
b110 g
b0 R
b11 Q
b10 P
b1 O
$end
#0
$dumpvars
b0 P"
0O"
0N"
b0 M"
b0 L"
bx K"
bx J"
bx I"
b1001 H"
b1000000000000000100000000000000010000000000000001000000000000000100000000000000010000000000000001000000000000000100000000000000010000000 G"
b0 F"
xC"
bx B"
bx A"
bx @"
b110001 ?"
b0 >"
bx ="
b0 <"
b0 ;"
b0 :"
b0 9"
b0 8"
b0 7"
b0 1"
bx 0"
bx ."
b0 -"
b0 ,"
b0 +"
b0 *"
b0 )"
b0 ("
b0 '"
b0 &"
b0 %"
b0 $"
b0 #"
b0 ""
b0 !"
b0 ~
b0 }
b0 |
b0 {
b0 z
b0 y
b0 x
0w
b0 v
b0 u
0t
b0 s
b0 r
0q
b0 p
bx o
0n
b0 f
b0 e
b0 d
b0 c
b1000000000000000100000000000000010000000000000001000000000000000100000000000000010000000000000001000000000000000100000000000000010000000 b
b0 a
bx `
x_
bx ^
x]
bx \
bx [
bx Z
bx Y
xX
bx W
bx V
bx U
b0 T
xS
bx N
b11000100 M
b0 L
b0 K
b0 J
bx I
b1001 H
b0 G
b0 F
bx E
bx D
b0 C
1B
0A
b0 @
0?
0>
b0 =
bx <
b0 ;
bx :
09
b0 8
b0 7
06
05
bx 4
b0 3
02
01
bx 0
x/
x.
0-
0,
bx +
bx *
bx )
bx (
bx '
x&
b1000000000000000100000000000000010000000000000001000000000000000100000000000000010000000000000001000000000000000100000000000000010000000 %
0$
x#
b0 "
0!
$end
#5000
b0 :
b0 E
b0 I
b0 0
b0 0"
b0 @"
0C"
0.
b0 '
b0 N
b0 A"
b0 4
b0 ."
b0 B"
0_
b0 ^
0S
0]
0X
0&
0/
b0 [
b0 U
b0 V
b0 \
b0 (
b0 Z
b0 K"
b0 )
b0 Y
b0 J"
b0 *
b0 W
b0 I"
0#
b0 <
b0 D
b0 o
b11000100 M
b110001 ?"
1>
#10000
0>
#15000
b110001 ?"
b11000100 M
1>
#20000
0>
#25000
1>
0B
#30000
0>
#35000
1>
#40000
0>
#45000
b1 ^
b1 T
1>
1?
#50000
0>
#55000
1/
b1 V
1>
0?
#60000
0>
#65000
b1 4
b1 ."
b1 B"
1C"
1/
b10 V
1>
#70000
0>
#75000
1/
b10 4
b10 ."
b10 B"
1.
b1 0
b1 0"
b1 @"
b11 V
1>
#80000
0>
#85000
b10 0
b10 0"
b10 @"
b11 4
b11 ."
b11 B"
b1 '
b1 N
b1 A"
b1 U
1/
b1111 `
b100 V
1>
#90000
0>
#95000
b1000000000000000000000000000000000000000000000000000000000000000000000000000000000000000000000000000000000000000000000000 (
b1000000000000000000000000000000000000000000000000000000000000000000000000000000000000000000000000000000000000000000000000 Z
b1000000000000000000000000000000000000000000000000000000000000000000000000000000000000000000000000000000000000000000000000 K"
b10 U
1/
b100 4
b100 ."
b100 B"
b10 '
b10 N
b10 A"
b11 0
b11 0"
b11 @"
b1111 `
b101 V
1>
#100000
0>
#105000
b100 0
b100 0"
b100 @"
b101 4
b101 ."
b101 B"
b11 '
b11 N
b11 A"
b10000000010000000000000000000000000000000000000000000000000000000000000000000000000000000000000000000000000000000000000000 (
b10000000010000000000000000000000000000000000000000000000000000000000000000000000000000000000000000000000000000000000000000 Z
b10000000010000000000000000000000000000000000000000000000000000000000000000000000000000000000000000000000000000000000000000 K"
b11 U
1/
b1111 `
b110 V
1>
#110000
0>
#115000
b11000000100000000100000000000000000000000000000000000000000000000000000000000000000000000000000000000000000000000000000000 (
b11000000100000000100000000000000000000000000000000000000000000000000000000000000000000000000000000000000000000000000000000 Z
b11000000100000000100000000000000000000000000000000000000000000000000000000000000000000000000000000000000000000000000000000 K"
b100 U
1/
b110 4
b110 ."
b110 B"
b100 '
b100 N
b100 A"
b101 0
b101 0"
b101 @"
b1111 `
b111 V
1>
#120000
0>
#125000
b110 0
b110 0"
b110 @"
b111 4
b111 ."
b111 B"
b101 '
b101 N
b101 A"
b100000000110000001000000001000000000000000000000000000000000000000000000000000000000000000000000000000000000000000000000000 (
b100000000110000001000000001000000000000000000000000000000000000000000000000000000000000000000000000000000000000000000000000 Z
b100000000110000001000000001000000000000000000000000000000000000000000000000000000000000000000000000000000000000000000000000 K"
b101 U
1/
b1111 `
b1000 V
1>
#130000
0>
#135000
b101000001000000001100000010000000010000000000000000000000000000000000000000000000000000000000000000000000000000000000000000 (
b101000001000000001100000010000000010000000000000000000000000000000000000000000000000000000000000000000000000000000000000000 Z
b101000001000000001100000010000000010000000000000000000000000000000000000000000000000000000000000000000000000000000000000000 K"
b110 U
1/
b1000 4
b1000 ."
b1000 B"
b110 '
b110 N
b110 A"
b111 0
b111 0"
b111 @"
b1111 `
b1001 V
1>
#140000
0>
#145000
b1000 0
b1000 0"
b1000 @"
b1001 4
b1001 ."
b1001 B"
b111 '
b111 N
b111 A"
b110000001010000010000000011000000100000000100000000000000000000000000000000000000000000000000000000000000000000000000000000 (
b110000001010000010000000011000000100000000100000000000000000000000000000000000000000000000000000000000000000000000000000000 Z
b110000001010000010000000011000000100000000100000000000000000000000000000000000000000000000000000000000000000000000000000000 K"
b111 U
1/
b1111 `
b1010 V
1>
#150000
0>
#155000
b111000001100000010100000100000000110000001000000001000000000000000000000000000000000000000000000000000000000000000000000000 (
b111000001100000010100000100000000110000001000000001000000000000000000000000000000000000000000000000000000000000000000000000 Z
b111000001100000010100000100000000110000001000000001000000000000000000000000000000000000000000000000000000000000000000000000 K"
b1000 U
1/
b1010 4
b1010 ."
b1010 B"
b1000 '
b1000 N
b1000 A"
b1001 0
b1001 0"
b1001 @"
b1111 `
b1011 V
1>
#160000
0>
#165000
b1010 0
b1010 0"
b1010 @"
b1011 4
b1011 ."
b1011 B"
b1001 '
b1001 N
b1001 A"
b1000000001110000011000000101000001000000001100000010000000010000000000000000000000000000000000000000000000000000000000000000 (
b1000000001110000011000000101000001000000001100000010000000010000000000000000000000000000000000000000000000000000000000000000 Z
b1000000001110000011000000101000001000000001100000010000000010000000000000000000000000000000000000000000000000000000000000000 K"
b1001 U
1/
b1111 `
b1100 V
1>
#170000
0>
#175000
b1001000010000000011100000110000001010000010000000011000000100000000100000000000000000000000000000000000000000000000000000000 (
b1001000010000000011100000110000001010000010000000011000000100000000100000000000000000000000000000000000000000000000000000000 Z
b1001000010000000011100000110000001010000010000000011000000100000000100000000000000000000000000000000000000000000000000000000 K"
b1010 U
1/
b1100 4
b1100 ."
b1100 B"
b1010 '
b1010 N
b1010 A"
b1011 0
b1011 0"
b1011 @"
b1111 `
b1101 V
1>
#180000
0>
#185000
b1100 0
b1100 0"
b1100 @"
b1101 4
b1101 ."
b1101 B"
b1011 '
b1011 N
b1011 A"
b1010000010010000100000000111000001100000010100000100000000110000001000000001000000000000000000000000000000000000000000000000 (
b1010000010010000100000000111000001100000010100000100000000110000001000000001000000000000000000000000000000000000000000000000 Z
b1010000010010000100000000111000001100000010100000100000000110000001000000001000000000000000000000000000000000000000000000000 K"
b1011 U
1/
b1111 `
b1110 V
1>
#190000
0>
#195000
b1011000010100000100100001000000001110000011000000101000001000000001100000010000000010000000000000000000000000000000000000000 (
b1011000010100000100100001000000001110000011000000101000001000000001100000010000000010000000000000000000000000000000000000000 Z
b1011000010100000100100001000000001110000011000000101000001000000001100000010000000010000000000000000000000000000000000000000 K"
b1100 U
1/
b1110 4
b1110 ."
b1110 B"
b1100 '
b1100 N
b1100 A"
b1101 0
b1101 0"
b1101 @"
b1111 `
b1111 V
1>
#200000
0>
#205000
b1110 0
b1110 0"
b1110 @"
b1111 4
b1111 ."
b1111 B"
b1101 '
b1101 N
b1101 A"
b1100000010110000101000001001000010000000011100000110000001010000010000000011000000100000000100000000000000000000000000000000 (
b1100000010110000101000001001000010000000011100000110000001010000010000000011000000100000000100000000000000000000000000000000 Z
b1100000010110000101000001001000010000000011100000110000001010000010000000011000000100000000100000000000000000000000000000000 K"
b1101 U
1/
b1111 `
b10000 V
1>
#210000
0>
#215000
b1101000011000000101100001010000010010000100000000111000001100000010100000100000000110000001000000001000000000000000000000000 (
b1101000011000000101100001010000010010000100000000111000001100000010100000100000000110000001000000001000000000000000000000000 Z
b1101000011000000101100001010000010010000100000000111000001100000010100000100000000110000001000000001000000000000000000000000 K"
b1110 U
1/
b10000 4
b10000 ."
b10000 B"
b1110 '
b1110 N
b1110 A"
b1111 0
b1111 0"
b1111 @"
b1111 `
b10001 V
1>
#220000
0>
#225000
b10000 0
b10000 0"
b10000 @"
b10001 4
b10001 ."
b10001 B"
b1111 '
b1111 N
b1111 A"
b1110000011010000110000001011000010100000100100001000000001110000011000000101000001000000001100000010000000010000000000000000 (
b1110000011010000110000001011000010100000100100001000000001110000011000000101000001000000001100000010000000010000000000000000 Z
b1110000011010000110000001011000010100000100100001000000001110000011000000101000001000000001100000010000000010000000000000000 K"
b1111 U
1/
b1111 `
b10010 V
1>
#230000
0>
#235000
b1111000011100000110100001100000010110000101000001001000010000000011100000110000001010000010000000011000000100000000100000000 (
b1111000011100000110100001100000010110000101000001001000010000000011100000110000001010000010000000011000000100000000100000000 Z
b1111000011100000110100001100000010110000101000001001000010000000011100000110000001010000010000000011000000100000000100000000 K"
b10000 U
1/
b10010 4
b10010 ."
b10010 B"
b10000 '
b10000 N
b10000 A"
b10001 0
b10001 0"
b10001 @"
b1111 `
b10011 V
1>
#240000
0>
#245000
b10010 0
b10010 0"
b10010 @"
b10011 4
b10011 ."
b10011 B"
b10001 '
b10001 N
b10001 A"
b10000000011110000111000001101000011000000101100001010000010010000100000000111000001100000010100000100000000110000001000000001 (
b10000000011110000111000001101000011000000101100001010000010010000100000000111000001100000010100000100000000110000001000000001 Z
b10000000011110000111000001101000011000000101100001010000010010000100000000111000001100000010100000100000000110000001000000001 K"
b10001 U
1/
b1111 `
b10100 V
1>
#250000
0>
#255000
b1000000000000000000000000000000000000000000000000000000000000000000000000000000000000000000000000000000000000000000000000 )
b1000000000000000000000000000000000000000000000000000000000000000000000000000000000000000000000000000000000000000000000000 Y
b1000000000000000000000000000000000000000000000000000000000000000000000000000000000000000000000000000000000000000000000000 J"
b10001000100000000111100001110000011010000110000001011000010100000100100001000000001110000011000000101000001000000001100000010 (
b10001000100000000111100001110000011010000110000001011000010100000100100001000000001110000011000000101000001000000001100000010 Z
b10001000100000000111100001110000011010000110000001011000010100000100100001000000001110000011000000101000001000000001100000010 K"
b10010 U
1/
b10100 4
b10100 ."
b10100 B"
b10010 '
b10010 N
b10010 A"
b10011 0
b10011 0"
b10011 @"
b1111 `
b10101 V
1>
#260000
0>
#265000
b10100 0
b10100 0"
b10100 @"
b10101 4
b10101 ."
b10101 B"
b10011 '
b10011 N
b10011 A"
b10000000010000000000000000000000000000000000000000000000000000000000000000000000000000000000000000000000000000000000000000 )
b10000000010000000000000000000000000000000000000000000000000000000000000000000000000000000000000000000000000000000000000000 Y
b10000000010000000000000000000000000000000000000000000000000000000000000000000000000000000000000000000000000000000000000000 J"
b10010000100010001000000001111000011100000110100001100000010110000101000001001000010000000011100000110000001010000010000000011 (
b10010000100010001000000001111000011100000110100001100000010110000101000001001000010000000011100000110000001010000010000000011 Z
b10010000100010001000000001111000011100000110100001100000010110000101000001001000010000000011100000110000001010000010000000011 K"
b10011 U
1/
b1111 `
b10110 V
1>
#270000
0>
#275000
b11000000100000000100000000000000000000000000000000000000000000000000000000000000000000000000000000000000000000000000000000 )
b11000000100000000100000000000000000000000000000000000000000000000000000000000000000000000000000000000000000000000000000000 Y
b11000000100000000100000000000000000000000000000000000000000000000000000000000000000000000000000000000000000000000000000000 J"
b10011000100100001000100010000000011110000111000001101000011000000101100001010000010010000100000000111000001100000010100000100 (
b10011000100100001000100010000000011110000111000001101000011000000101100001010000010010000100000000111000001100000010100000100 Z
b10011000100100001000100010000000011110000111000001101000011000000101100001010000010010000100000000111000001100000010100000100 K"
b10100 U
1/
b10110 4
b10110 ."
b10110 B"
b10100 '
b10100 N
b10100 A"
b10101 0
b10101 0"
b10101 @"
b1111 `
b10111 V
1>
#280000
0>
#285000
b10110 0
b10110 0"
b10110 @"
b10111 4
b10111 ."
b10111 B"
b10101 '
b10101 N
b10101 A"
b100000000110000001000000001000000000000000000000000000000000000000000000000000000000000000000000000000000000000000000000000 )
b100000000110000001000000001000000000000000000000000000000000000000000000000000000000000000000000000000000000000000000000000 Y
b100000000110000001000000001000000000000000000000000000000000000000000000000000000000000000000000000000000000000000000000000 J"
b10100000100110001001000010001000100000000111100001110000011010000110000001011000010100000100100001000000001110000011000000101 (
b10100000100110001001000010001000100000000111100001110000011010000110000001011000010100000100100001000000001110000011000000101 Z
b10100000100110001001000010001000100000000111100001110000011010000110000001011000010100000100100001000000001110000011000000101 K"
b10101 U
1/
b1111 `
b11000 V
1>
#290000
0>
#295000
b101000001000000001100000010000000010000000000000000000000000000000000000000000000000000000000000000000000000000000000000000 )
b101000001000000001100000010000000010000000000000000000000000000000000000000000000000000000000000000000000000000000000000000 Y
b101000001000000001100000010000000010000000000000000000000000000000000000000000000000000000000000000000000000000000000000000 J"
b10101000101000001001100010010000100010001000000001111000011100000110100001100000010110000101000001001000010000000011100000110 (
b10101000101000001001100010010000100010001000000001111000011100000110100001100000010110000101000001001000010000000011100000110 Z
b10101000101000001001100010010000100010001000000001111000011100000110100001100000010110000101000001001000010000000011100000110 K"
b10110 U
1/
b11000 4
b11000 ."
b11000 B"
b10110 '
b10110 N
b10110 A"
b10111 0
b10111 0"
b10111 @"
b1111 `
b11001 V
1>
#300000
0>
#305000
b11000 0
b11000 0"
b11000 @"
b11001 4
b11001 ."
b11001 B"
b10111 '
b10111 N
b10111 A"
b110000001010000010000000011000000100000000100000000000000000000000000000000000000000000000000000000000000000000000000000000 )
b110000001010000010000000011000000100000000100000000000000000000000000000000000000000000000000000000000000000000000000000000 Y
b110000001010000010000000011000000100000000100000000000000000000000000000000000000000000000000000000000000000000000000000000 J"
b10110000101010001010000010011000100100001000100010000000011110000111000001101000011000000101100001010000010010000100000000111 (
b10110000101010001010000010011000100100001000100010000000011110000111000001101000011000000101100001010000010010000100000000111 Z
b10110000101010001010000010011000100100001000100010000000011110000111000001101000011000000101100001010000010010000100000000111 K"
b10111 U
1/
b1111 `
b11010 V
1>
#310000
0>
#315000
b111000001100000010100000100000000110000001000000001000000000000000000000000000000000000000000000000000000000000000000000000 )
b111000001100000010100000100000000110000001000000001000000000000000000000000000000000000000000000000000000000000000000000000 Y
b111000001100000010100000100000000110000001000000001000000000000000000000000000000000000000000000000000000000000000000000000 J"
b10111000101100001010100010100000100110001001000010001000100000000111100001110000011010000110000001011000010100000100100001000 (
b10111000101100001010100010100000100110001001000010001000100000000111100001110000011010000110000001011000010100000100100001000 Z
b10111000101100001010100010100000100110001001000010001000100000000111100001110000011010000110000001011000010100000100100001000 K"
b11000 U
1/
b11010 4
b11010 ."
b11010 B"
b11000 '
b11000 N
b11000 A"
b11001 0
b11001 0"
b11001 @"
b1111 `
b11011 V
1>
#320000
0>
#325000
b11010 0
b11010 0"
b11010 @"
b11011 4
b11011 ."
b11011 B"
b11001 '
b11001 N
b11001 A"
b1000000001110000011000000101000001000000001100000010000000010000000000000000000000000000000000000000000000000000000000000000 )
b1000000001110000011000000101000001000000001100000010000000010000000000000000000000000000000000000000000000000000000000000000 Y
b1000000001110000011000000101000001000000001100000010000000010000000000000000000000000000000000000000000000000000000000000000 J"
b11000000101110001011000010101000101000001001100010010000100010001000000001111000011100000110100001100000010110000101000001001 (
b11000000101110001011000010101000101000001001100010010000100010001000000001111000011100000110100001100000010110000101000001001 Z
b11000000101110001011000010101000101000001001100010010000100010001000000001111000011100000110100001100000010110000101000001001 K"
b11001 U
1/
b1111 `
b11100 V
1>
#330000
0>
#335000
b1001000010000000011100000110000001010000010000000011000000100000000100000000000000000000000000000000000000000000000000000000 )
b1001000010000000011100000110000001010000010000000011000000100000000100000000000000000000000000000000000000000000000000000000 Y
b1001000010000000011100000110000001010000010000000011000000100000000100000000000000000000000000000000000000000000000000000000 J"
b11001000110000001011100010110000101010001010000010011000100100001000100010000000011110000111000001101000011000000101100001010 (
b11001000110000001011100010110000101010001010000010011000100100001000100010000000011110000111000001101000011000000101100001010 Z
b11001000110000001011100010110000101010001010000010011000100100001000100010000000011110000111000001101000011000000101100001010 K"
b11010 U
1/
b11100 4
b11100 ."
b11100 B"
b11010 '
b11010 N
b11010 A"
b11011 0
b11011 0"
b11011 @"
b1111 `
b11101 V
1>
#340000
0>
#345000
b11100 0
b11100 0"
b11100 @"
b11101 4
b11101 ."
b11101 B"
b11011 '
b11011 N
b11011 A"
b1010000010010000100000000111000001100000010100000100000000110000001000000001000000000000000000000000000000000000000000000000 )
b1010000010010000100000000111000001100000010100000100000000110000001000000001000000000000000000000000000000000000000000000000 Y
b1010000010010000100000000111000001100000010100000100000000110000001000000001000000000000000000000000000000000000000000000000 J"
b11010000110010001100000010111000101100001010100010100000100110001001000010001000100000000111100001110000011010000110000001011 (
b11010000110010001100000010111000101100001010100010100000100110001001000010001000100000000111100001110000011010000110000001011 Z
b11010000110010001100000010111000101100001010100010100000100110001001000010001000100000000111100001110000011010000110000001011 K"
b11011 U
1/
b1111 `
b11110 V
1>
#350000
0>
#355000
b1011000010100000100100001000000001110000011000000101000001000000001100000010000000010000000000000000000000000000000000000000 )
b1011000010100000100100001000000001110000011000000101000001000000001100000010000000010000000000000000000000000000000000000000 Y
b1011000010100000100100001000000001110000011000000101000001000000001100000010000000010000000000000000000000000000000000000000 J"
b11011000110100001100100011000000101110001011000010101000101000001001100010010000100010001000000001111000011100000110100001100 (
b11011000110100001100100011000000101110001011000010101000101000001001100010010000100010001000000001111000011100000110100001100 Z
b11011000110100001100100011000000101110001011000010101000101000001001100010010000100010001000000001111000011100000110100001100 K"
b11100 U
1/
b11110 4
b11110 ."
b11110 B"
b11100 '
b11100 N
b11100 A"
b11101 0
b11101 0"
b11101 @"
b1111 `
b11111 V
1>
#360000
0>
#365000
b11110 0
b11110 0"
b11110 @"
b11111 4
b11111 ."
b11111 B"
b11101 '
b11101 N
b11101 A"
b1100000010110000101000001001000010000000011100000110000001010000010000000011000000100000000100000000000000000000000000000000 )
b1100000010110000101000001001000010000000011100000110000001010000010000000011000000100000000100000000000000000000000000000000 Y
b1100000010110000101000001001000010000000011100000110000001010000010000000011000000100000000100000000000000000000000000000000 J"
b11100000110110001101000011001000110000001011100010110000101010001010000010011000100100001000100010000000011110000111000001101 (
b11100000110110001101000011001000110000001011100010110000101010001010000010011000100100001000100010000000011110000111000001101 Z
b11100000110110001101000011001000110000001011100010110000101010001010000010011000100100001000100010000000011110000111000001101 K"
b11101 U
1/
b1111 `
b100000 V
1>
#370000
0>
#375000
b1101000011000000101100001010000010010000100000000111000001100000010100000100000000110000001000000001000000000000000000000000 )
b1101000011000000101100001010000010010000100000000111000001100000010100000100000000110000001000000001000000000000000000000000 Y
b1101000011000000101100001010000010010000100000000111000001100000010100000100000000110000001000000001000000000000000000000000 J"
b11101000111000001101100011010000110010001100000010111000101100001010100010100000100110001001000010001000100000000111100001110 (
b11101000111000001101100011010000110010001100000010111000101100001010100010100000100110001001000010001000100000000111100001110 Z
b11101000111000001101100011010000110010001100000010111000101100001010100010100000100110001001000010001000100000000111100001110 K"
b11110 U
1/
b100000 4
b100000 ."
b100000 B"
b11110 '
b11110 N
b11110 A"
b11111 0
b11111 0"
b11111 @"
b1111 `
b100001 V
1>
#380000
0>
#385000
b100000 0
b100000 0"
b100000 @"
b100001 4
b100001 ."
b100001 B"
b11111 '
b11111 N
b11111 A"
b1110000011010000110000001011000010100000100100001000000001110000011000000101000001000000001100000010000000010000000000000000 )
b1110000011010000110000001011000010100000100100001000000001110000011000000101000001000000001100000010000000010000000000000000 Y
b1110000011010000110000001011000010100000100100001000000001110000011000000101000001000000001100000010000000010000000000000000 J"
b11110000111010001110000011011000110100001100100011000000101110001011000010101000101000001001100010010000100010001000000001111 (
b11110000111010001110000011011000110100001100100011000000101110001011000010101000101000001001100010010000100010001000000001111 Z
b11110000111010001110000011011000110100001100100011000000101110001011000010101000101000001001100010010000100010001000000001111 K"
b11111 U
1/
b1111 `
b100010 V
1>
#390000
0>
#395000
b1111000011100000110100001100000010110000101000001001000010000000011100000110000001010000010000000011000000100000000100000000 )
b1111000011100000110100001100000010110000101000001001000010000000011100000110000001010000010000000011000000100000000100000000 Y
b1111000011100000110100001100000010110000101000001001000010000000011100000110000001010000010000000011000000100000000100000000 J"
b11111000111100001110100011100000110110001101000011001000110000001011100010110000101010001010000010011000100100001000100010000 (
b11111000111100001110100011100000110110001101000011001000110000001011100010110000101010001010000010011000100100001000100010000 Z
b11111000111100001110100011100000110110001101000011001000110000001011100010110000101010001010000010011000100100001000100010000 K"
b100000 U
1/
b100010 4
b100010 ."
b100010 B"
b100000 '
b100000 N
b100000 A"
b100001 0
b100001 0"
b100001 @"
b1111 `
b100011 V
1>
#400000
0>
