Convolution_(Image_Processing)_Engine/system_verification.vcd
$date
	Thu Jul 02 22:10:47 2026
$end
$version
	Icarus Verilog
$end
$timescale
	1ps
$end
$scope module system_verification_tb $end
$var wire 1 ! wr_valid $end
$var wire 72 " window [71:0] $end
$var wire 1 # win_valid $end
$var wire 1 $ win_set_done $end
$var wire 144 % weights [143:0] $end
$var wire 1 & rows_rdy $end
$var wire 8 ' row_in_stream [7:0] $end
$var wire 128 ( row_c_reg [127:0] $end
$var wire 128 ) row_b_reg [127:0] $end
$var wire 128 * row_a_reg [127:0] $end
$var wire 36 + proc_img_rd_data [35:0] $end
$var wire 1 , proc_img_mem_full $end
$var wire 1 - pool_done $end
$var wire 1 . pixel_valid $end
$var wire 1 / pixel_req $end
$var wire 8 0 pixel_in [7:0] $end
$var wire 1 1 next_win_req $end
$var wire 1 2 max_valid $end
$var wire 36 3 max_out [35:0] $end
$var wire 8 4 img_rd_addr [7:0] $end
$var wire 1 5 ft_rd_valid $end
$var wire 1 6 ft_rd_data_valid $end
$var wire 36 7 ft_rd_data [35:0] $end
$var wire 8 8 ft_rd_addr [7:0] $end
$var wire 1 9 ft_mem_full $end
$var wire 36 : final_sum [35:0] $end
$var wire 144 ; converted_window [143:0] $end
$var wire 36 < conv_sum [35:0] $end
$var wire 16 = bias [15:0] $end
$var reg 1 > clk $end
$var reg 1 ? lb_st $end
$var reg 8 @ proc_img_rd_addr [7:0] $end
$var reg 1 A proc_img_rd_valid $end
$var reg 1 B rst $end
$var integer 32 C conv_errors [31:0] $end
$var integer 32 D conv_idx [31:0] $end
$var integer 32 E pool_errors [31:0] $end
$var integer 32 F relu_errors [31:0] $end
$scope module tb_ReLU $end
$var wire 36 G in [35:0] $end
$var reg 36 H out [35:0] $end
$upscope $end
$scope module tb_data_converter $end
$var wire 72 I window [71:0] $end
$var reg 144 J converted_window [143:0] $end
$var integer 32 K i [31:0] $end
$upscope $end
$scope module tb_feature_mat_mem $end
$var wire 1 > clk $end
$var wire 1 B rst $end
$var wire 36 L wr_data [35:0] $end
$var wire 1 ! wr_valid $end
$var wire 1 5 rd_valid $end
$var wire 8 M rd_addr [7:0] $end
$var reg 1 9 mem_full $end
$var reg 36 N rd_data [35:0] $end
$var reg 1 6 rd_data_valid $end
$var reg 8 O wr_addr [7:0] $end
$var integer 32 P i [31:0] $end
$upscope $end
$scope module tb_lb $end
$var wire 1 > clk $end
$var wire 1 ? lb_st $end
$var wire 1 B rst $end
$var wire 1 $ win_set_done $end
$var wire 8 Q row_in_stream [7:0] $end
$var wire 1 . pixel_valid $end
$var parameter 32 R LOAD_ABC $end
$var parameter 32 S LOAD_D $end
$var parameter 32 T SHIFT_ROWS $end
$var parameter 32 U WAIT_FOR_EVENT $end
$var reg 1 V img_done $end
$var reg 2 W next_state [1:0] $end
$var reg 1 / pixel_req $end
$var reg 6 X recv_cnt [5:0] $end
$var reg 6 Y req_cnt [5:0] $end
$var reg 128 Z row_a_reg [127:0] $end
$var reg 1 [ row_abc_valid $end
$var reg 128 \ row_b_reg [127:0] $end
$var reg 128 ] row_c_reg [127:0] $end
$var reg 4 ^ row_cnt [3:0] $end
$var reg 128 _ row_d_reg [127:0] $end
$var reg 1 ` row_d_valid $end
$var reg 1 & rows_rdy $end
$var reg 2 a state [1:0] $end
$var reg 1 b win_done_latch $end
$var integer 32 c i [31:0] $end
$upscope $end
$scope module tb_mac $end
$var wire 1 > clk $end
$var wire 144 d pixel_win [143:0] $end
$var wire 1 B rst $end
$var wire 1 # win_valid $end
$var wire 144 e weights [143:0] $end
$var wire 36 f mac2_sum [35:0] $end
$var wire 36 g mac1_sum [35:0] $end
$var wire 36 h mac0_sum [35:0] $end
$var wire 16 i bias [15:0] $end
$var parameter 32 j DONE $end
$var parameter 32 k IDLE $end
$var parameter 32 l LOAD0 $end
$var parameter 32 m LOAD1 $end
$var parameter 32 n LOAD2 $end
$var parameter 32 o SUM $end
$var parameter 32 p WAIT $end
$var reg 1 q clear $end
$var reg 36 r conv_sum [35:0] $end
$var reg 16 s mac0_pixel [15:0] $end
$var reg 1 t mac0_valid_in $end
$var reg 16 u mac0_weight [15:0] $end
$var reg 16 v mac1_pixel [15:0] $end
$var reg 1 w mac1_valid_in $end
$var reg 16 x mac1_weight [15:0] $end
$var reg 16 y mac2_pixel [15:0] $end
$var reg 1 z mac2_valid_in $end
$var reg 16 { mac2_weight [15:0] $end
$var reg 3 | next_state [2:0] $end
$var reg 1 1 next_win_req $end
$var reg 3 } state [2:0] $end
$var reg 1 ! wr_valid $end
$scope module mac0 $end
$var wire 1 q clear $end
$var wire 1 > clk $end
$var wire 16 ~ pixel [15:0] $end
$var wire 1 B rst $end
$var wire 36 !" sum [35:0] $end
$var wire 1 t valid_in $end
$var wire 16 "" weight [15:0] $end
$var reg 36 #" sum_reg [35:0] $end
$upscope $end
$scope module mac1 $end
$var wire 1 q clear $end
$var wire 1 > clk $end
$var wire 16 $" pixel [15:0] $end
$var wire 1 B rst $end
$var wire 36 %" sum [35:0] $end
$var wire 1 w valid_in $end
$var wire 16 &" weight [15:0] $end
$var reg 36 '" sum_reg [35:0] $end
$upscope $end
$scope module mac2 $end
$var wire 1 q clear $end
$var wire 1 > clk $end
$var wire 16 (" pixel [15:0] $end
$var wire 1 B rst $end
$var wire 36 )" sum [35:0] $end
$var wire 1 z valid_in $end
$var wire 16 *" weight [15:0] $end
$var reg 36 +" sum_reg [35:0] $end
$upscope $end
$upscope $end
$scope module tb_max_pool $end
$var wire 1 > clk $end
$var wire 36 ," feature_data [35:0] $end
$var wire 1 6 feature_valid $end
$var wire 1 B rst $end
$var wire 36 -" next_max [35:0] $end
$var reg 36 ." current_max [35:0] $end
$var reg 36 /" max_out [35:0] $end
$var reg 1 2 max_valid $end
$var reg 3 0" sample_count [2:0] $end
$upscope $end
$scope module tb_mem $end
$var wire 1 > clk $end
$var wire 1 B rst $end
$var wire 8 1" rd_addr [7:0] $end
$var parameter 112 2" FILE_NAME $end
$var reg 8 3" pixel_out [7:0] $end
$upscope $end
$scope module tb_pool_addr_gen $end
$var wire 1 > clk $end
$var wire 1 9 ft_mem_full $end
$var wire 1 B rst $end
$var wire 8 4" base_addr [7:0] $end
$var parameter 32 5" PHASE0 $end
$var parameter 32 6" PHASE1 $end
$var parameter 32 7" PHASE2 $end
$var parameter 32 8" PHASE3 $end
$var parameter 32 9" WAIT_STATE $end
$var reg 4 :" phase [3:0] $end
$var reg 4 ;" pool_col [3:0] $end
$var reg 1 - pool_done $end
$var reg 4 <" pool_row [3:0] $end
$var reg 8 =" rd_addr [7:0] $end
$var reg 1 5 rd_valid $end
$upscope $end
$scope module tb_proc_img_mem $end
$var wire 1 > clk $end
$var wire 8 >" rd_addr [7:0] $end
$var wire 1 A rd_valid $end
$var wire 1 B rst $end
$var wire 36 ?" wr_data [35:0] $end
$var wire 1 2 wr_valid $end
$var reg 1 , mem_full $end
$var reg 36 @" rd_data [35:0] $end
$var reg 7 A" wr_addr [6:0] $end
$var integer 32 B" i [31:0] $end
$upscope $end
$scope module tb_rdr $end
$var wire 1 > clk $end
$var wire 8 C" pixel_in [7:0] $end
$var wire 1 / pixel_req $end
$var wire 1 B rst $end
$var reg 8 D" pixel_out [7:0] $end
$var reg 1 . pixel_valid $end
$var reg 8 E" rd_addr [7:0] $end
$var reg 1 F" valid_pipe $end
$upscope $end
$scope module tb_weight_memory $end
$var parameter 64 G" BIAS_FILE_NAME $end
$var parameter 88 H" WT_FILE_NAME $end
$var reg 16 I" bias [15:0] $end
$var reg 144 J" weights [143:0] $end
$var integer 32 K" i [31:0] $end
$upscope $end
$scope module tb_win_gen $end
$var wire 1 > clk $end
$var wire 1 1 next_win_req $end
$var wire 128 L" row_a_reg [127:0] $end
$var wire 128 M" row_b_reg [127:0] $end
$var wire 128 N" row_c_reg [127:0] $end
$var wire 1 & rows_rdy $end
$var wire 1 B rst $end
$var wire 4 O" current_i [3:0] $end
$var reg 4 P" i [3:0] $end
$var reg 1 Q" processing $end
$var reg 1 R" wait_for_mac_req $end
$var reg 1 $ win_set_done $end
$var reg 1 # win_valid $end
$var reg 72 S" window [71:0] $end
$upscope $end
$scope begin $ivl_for_loop0 $end
$var integer 32 T" i [31:0] $end
$upscope $end
$upscope $end
$enddefinitions $end
$comment Show the parameter values. $end
$dumpall
b111011101100101011010010110011101101000011101000111001100101110011011010110010101101101 H"
b110001001101001011000010111001100101110011011010110010101101101 G"
b100 9"
b11 8"
b10 7"
b1 6"
b0 5"
b110100101101101011000010110011101100101010111110110011001101001011011000110010100101110011011010110010101101101 2"
b100 p
b101 o
b11 n
b10 m
b1 l
b0 k
b110 j
b0 U
b11 T
b10 S
b1 R
$end
#0
$dumpvars
bx T"
b0 S"
0R"
0Q"
b0 P"
b0 O"
bx N"
bx M"
bx L"
b1001 K"
b111111111011001000000000011000000000000000100100111111111011110100000000000010000000000000011010000000000100011100000000010001011111111111100110 J"
b1111111011110101 I"
xF"
bx E"
bx D"
bx C"
b110001 B"
b0 A"
bx @"
b0 ?"
bx >"
b0 ="
b0 <"
b0 ;"
b0 :"
b0 4"
bx 3"
bx 1"
b0 0"
b0 /"
b0 ."
b0 -"
b0 ,"
b0 +"
b0 *"
b0 )"
b0 ("
b0 '"
b0 &"
b0 %"
b0 $"
b0 #"
b0 ""
b0 !"
b0 ~
b0 }
b0 |
b0 {
0z
b0 y
b0 x
0w
b0 v
b0 u
0t
b0 s
bx r
0q
b1111111011110101 i
b0 h
b0 g
b0 f
b111111111011001000000000011000000000000000100100111111111011110100000000000010000000000000011010000000000100011100000000010001011111111111100110 e
b0 d
bx c
xb
bx a
x`
bx _
bx ^
bx ]
bx \
x[
bx Z
bx Y
bx X
b0 W
xV
bx Q
b11000100 P
b0 O
b0 N
b0 M
bx L
b1001 K
b0 J
b0 I
bx H
bx G
b0 F
b0 E
b0 D
b0 C
1B
xA
bx @
0?
0>
b1111111011110101 =
bx <
b0 ;
bx :
09
b0 8
b0 7
06
05
bx 4
b0 3
02
01
bx 0
x/
x.
0-
0,
bx +
bx *
bx )
bx (
bx '
x&
b111111111011001000000000011000000000000000100100111111111011110100000000000010000000000000011010000000000100011100000000010001011111111111100110 %
0$
x#
b0 "
0!
$end
#5000
b0 :
b0 H
b0 L
b0 0
b0 3"
b0 C"
0F"
0.
b0 '
b0 Q
b0 D"
b0 4
b0 1"
b0 E"
0b
b0 a
0V
0`
0[
0&
0/
b0 ^
b0 X
b0 Y
b0 _
b0 (
b0 ]
b0 N"
b0 )
b0 \
b0 M"
b0 *
b0 Z
b0 L"
0#
b0 <
b0 G
b0 r
b11000100 P
b110001 B"
1>
#10000
0>
#15000
b110001 B"
b11000100 P
1>
#20000
0>
#25000
b1100110 0
b1100110 3"
b1100110 C"
1>
0B
#30000
0>
#35000
b1100110 '
b1100110 Q
b1100110 D"
1>
#40000
0>
#45000
b1 a
b1 W
1>
1?
#50000
0>
#55000
1/
b1 Y
1>
0?
#60000
0>
#65000
b1 4
b1 1"
b1 E"
1F"
1/
b10 Y
1>
#70000
0>
#75000
1/
b10 4
b10 1"
b10 E"
1.
b10110011 0
b10110011 3"
b10110011 C"
b11 Y
1>
#80000
0>
#85000
b1011100 0
b1011100 3"
b1011100 C"
b11 4
b11 1"
b11 E"
b10110011 '
b10110011 Q
b10110011 D"
b1100110000000000000000000000000000000000000000000000000000000000000000000000000000000000000000000000000000000000000000000000000 (
b1100110000000000000000000000000000000000000000000000000000000000000000000000000000000000000000000000000000000000000000000000000 ]
b1100110000000000000000000000000000000000000000000000000000000000000000000000000000000000000000000000000000000000000000000000000 N"
b1 X
1/
b1111 c
b100 Y
1>
#90000
0>
#95000
b10110011011001100000000000000000000000000000000000000000000000000000000000000000000000000000000000000000000000000000000000000000 (
b10110011011001100000000000000000000000000000000000000000000000000000000000000000000000000000000000000000000000000000000000000000 ]
b10110011011001100000000000000000000000000000000000000000000000000000000000000000000000000000000000000000000000000000000000000000 N"
b10 X
1/
b100 4
b100 1"
b100 E"
b1011100 '
b1011100 Q
b1011100 D"
b1110 0
b1110 3"
b1110 C"
b1111 c
b101 Y
1>
#100000
0>
#105000
b1101010 0
b1101010 3"
b1101010 C"
b101 4
b101 1"
b101 E"
b1110 '
b1110 Q
b1110 D"
b1011100101100110110011000000000000000000000000000000000000000000000000000000000000000000000000000000000000000000000000000000000 (
b1011100101100110110011000000000000000000000000000000000000000000000000000000000000000000000000000000000000000000000000000000000 ]
b1011100101100110110011000000000000000000000000000000000000000000000000000000000000000000000000000000000000000000000000000000000 N"
b11 X
1/
b1111 c
b110 Y
1>
#110000
0>
#115000
b1110010111001011001101100110000000000000000000000000000000000000000000000000000000000000000000000000000000000000000000000000 (
b1110010111001011001101100110000000000000000000000000000000000000000000000000000000000000000000000000000000000000000000000000 ]
b1110010111001011001101100110000000000000000000000000000000000000000000000000000000000000000000000000000000000000000000000000 N"
b100 X
1/
b110 4
b110 1"
b110 E"
b1101010 '
b1101010 Q
b1101010 D"
b1000111 0
b1000111 3"
b1000111 C"
b1111 c
b111 Y
1>
#120000
0>
#125000
b10111100 0
b10111100 3"
b10111100 C"
b111 4
b111 1"
b111 E"
b1000111 '
b1000111 Q
b1000111 D"
b1101010000011100101110010110011011001100000000000000000000000000000000000000000000000000000000000000000000000000000000000000000 (
b1101010000011100101110010110011011001100000000000000000000000000000000000000000000000000000000000000000000000000000000000000000 ]
b1101010000011100101110010110011011001100000000000000000000000000000000000000000000000000000000000000000000000000000000000000000 N"
b101 X
1/
b1111 c
b1000 Y
1>
#130000
0>
#135000
b1000111011010100000111001011100101100110110011000000000000000000000000000000000000000000000000000000000000000000000000000000000 (
b1000111011010100000111001011100101100110110011000000000000000000000000000000000000000000000000000000000000000000000000000000000 ]
b1000111011010100000111001011100101100110110011000000000000000000000000000000000000000000000000000000000000000000000000000000000 N"
b110 X
1/
b1000 4
b1000 1"
b1000 E"
b10111100 '
b10111100 Q
b10111100 D"
b10100 0
b10100 3"
b10100 C"
b1111 c
b1001 Y
1>
#140000
0>
#145000
b1100110 0
b1100110 3"
b1100110 C"
b1001 4
b1001 1"
b1001 E"
b10100 '
b10100 Q
b10100 D"
b10111100010001110110101000001110010111001011001101100110000000000000000000000000000000000000000000000000000000000000000000000000 (
b10111100010001110110101000001110010111001011001101100110000000000000000000000000000000000000000000000000000000000000000000000000 ]
b10111100010001110110101000001110010111001011001101100110000000000000000000000000000000000000000000000000000000000000000000000000 N"
b111 X
1/
b1111 c
b1010 Y
1>
#150000
0>
#155000
b10100101111000100011101101010000011100101110010110011011001100000000000000000000000000000000000000000000000000000000000000000 (
b10100101111000100011101101010000011100101110010110011011001100000000000000000000000000000000000000000000000000000000000000000 ]
b10100101111000100011101101010000011100101110010110011011001100000000000000000000000000000000000000000000000000000000000000000 N"
b1000 X
1/
b1010 4
b1010 1"
b1010 E"
b1100110 '
b1100110 Q
b1100110 D"
b1111001 0
b1111001 3"
b1111001 C"
b1111 c
b1011 Y
1>
#160000
0>
#165000
b11010010 0
b11010010 3"
b11010010 C"
b1011 4
b1011 1"
b1011 E"
b1111001 '
b1111001 Q
b1111001 D"
b1100110000101001011110001000111011010100000111001011100101100110110011000000000000000000000000000000000000000000000000000000000 (
b1100110000101001011110001000111011010100000111001011100101100110110011000000000000000000000000000000000000000000000000000000000 ]
b1100110000101001011110001000111011010100000111001011100101100110110011000000000000000000000000000000000000000000000000000000000 N"
b1001 X
1/
b1111 c
b1100 Y
1>
#170000
0>
#175000
b1111001011001100001010010111100010001110110101000001110010111001011001101100110000000000000000000000000000000000000000000000000 (
b1111001011001100001010010111100010001110110101000001110010111001011001101100110000000000000000000000000000000000000000000000000 ]
b1111001011001100001010010111100010001110110101000001110010111001011001101100110000000000000000000000000000000000000000000000000 N"
b1010 X
1/
b1100 4
b1100 1"
b1100 E"
b11010010 '
b11010010 Q
b11010010 D"
b11010110 0
b11010110 3"
b11010110 C"
b1111 c
b1101 Y
1>
#180000
0>
#185000
b1001010 0
b1001010 3"
b1001010 C"
b1101 4
b1101 1"
b1101 E"
b11010110 '
b11010110 Q
b11010110 D"
b11010010011110010110011000010100101111000100011101101010000011100101110010110011011001100000000000000000000000000000000000000000 (
b11010010011110010110011000010100101111000100011101101010000011100101110010110011011001100000000000000000000000000000000000000000 ]
b11010010011110010110011000010100101111000100011101101010000011100101110010110011011001100000000000000000000000000000000000000000 N"
b1011 X
1/
b1111 c
b1110 Y
1>
#190000
0>
#195000
b11010110110100100111100101100110000101001011110001000111011010100000111001011100101100110110011000000000000000000000000000000000 (
b11010110110100100111100101100110000101001011110001000111011010100000111001011100101100110110011000000000000000000000000000000000 ]
b11010110110100100111100101100110000101001011110001000111011010100000111001011100101100110110011000000000000000000000000000000000 N"
b1100 X
1/
b1110 4
b1110 1"
b1110 E"
b1001010 '
b1001010 Q
b1001010 D"
b11001010 0
b11001010 3"
b11001010 C"
b1111 c
b1111 Y
1>
#200000
0>
#205000
b1010111 0
b1010111 3"
b1010111 C"
b1111 4
b1111 1"
b1111 E"
b11001010 '
b11001010 Q
b11001010 D"
b1001010110101101101001001111001011001100001010010111100010001110110101000001110010111001011001101100110000000000000000000000000 (
b1001010110101101101001001111001011001100001010010111100010001110110101000001110010111001011001101100110000000000000000000000000 ]
b1001010110101101101001001111001011001100001010010111100010001110110101000001110010111001011001101100110000000000000000000000000 N"
b1101 X
1/
b1111 c
b10000 Y
1>
#210000
0>
#215000
b11001010010010101101011011010010011110010110011000010100101111000100011101101010000011100101110010110011011001100000000000000000 (
b11001010010010101101011011010010011110010110011000010100101111000100011101101010000011100101110010110011011001100000000000000000 ]
b11001010010010101101011011010010011110010110011000010100101111000100011101101010000011100101110010110011011001100000000000000000 N"
b1110 X
1/
b10000 4
b10000 1"
b10000 E"
b1010111 '
b1010111 Q
b1010111 D"
b1110100 0
b1110100 3"
b1110100 C"
b1111 c
b10001 Y
1>
#220000
0>
#225000
b1100011 0
b1100011 3"
b1100011 C"
b10001 4
b10001 1"
b10001 E"
b1110100 '
b1110100 Q
b1110100 D"
b1010111110010100100101011010110110100100111100101100110000101001011110001000111011010100000111001011100101100110110011000000000 (
b1010111110010100100101011010110110100100111100101100110000101001011110001000111011010100000111001011100101100110110011000000000 ]
b1010111110010100100101011010110110100100111100101100110000101001011110001000111011010100000111001011100101100110110011000000000 N"
b1111 X
1/
b1111 c
b10010 Y
1>
#230000
0>
#235000
b1110100010101111100101001001010110101101101001001111001011001100001010010111100010001110110101000001110010111001011001101100110 (
b1110100010101111100101001001010110101101101001001111001011001100001010010111100010001110110101000001110010111001011001101100110 ]
b1110100010101111100101001001010110101101101001001111001011001100001010010111100010001110110101000001110010111001011001101100110 N"
b10000 X
1/
b10010 4
b10010 1"
b10010 E"
b1100011 '
b1100011 Q
b1100011 D"
b1100111 0
b1100111 3"
b1100111 C"
b1111 c
b10011 Y
1>
#240000
0>
#245000
b10010111 0
b10010111 3"
b10010111 C"
b10011 4
b10011 1"
b10011 E"
b1100111 '
b1100111 Q
b1100111 D"
b1100110000000000000000000000000000000000000000000000000000000000000000000000000000000000000000000000000000000000000000000000000 )
b1100110000000000000000000000000000000000000000000000000000000000000000000000000000000000000000000000000000000000000000000000000 \
b1100110000000000000000000000000000000000000000000000000000000000000000000000000000000000000000000000000000000000000000000000000 M"
b1100011011101000101011111001010010010101101011011010010011110010110011000010100101111000100011101101010000011100101110010110011 (
b1100011011101000101011111001010010010101101011011010010011110010110011000010100101111000100011101101010000011100101110010110011 ]
b1100011011101000101011111001010010010101101011011010010011110010110011000010100101111000100011101101010000011100101110010110011 N"
b10001 X
1/
b1111 c
b10100 Y
1>
#250000
0>
#255000
b10110011011001100000000000000000000000000000000000000000000000000000000000000000000000000000000000000000000000000000000000000000 )
b10110011011001100000000000000000000000000000000000000000000000000000000000000000000000000000000000000000000000000000000000000000 \
b10110011011001100000000000000000000000000000000000000000000000000000000000000000000000000000000000000000000000000000000000000000 M"
b1100111011000110111010001010111110010100100101011010110110100100111100101100110000101001011110001000111011010100000111001011100 (
b1100111011000110111010001010111110010100100101011010110110100100111100101100110000101001011110001000111011010100000111001011100 ]
b1100111011000110111010001010111110010100100101011010110110100100111100101100110000101001011110001000111011010100000111001011100 N"
b10010 X
1/
b10100 4
b10100 1"
b10100 E"
b10010111 '
b10010111 Q
b10010111 D"
b10000010 0
b10000010 3"
b10000010 C"
b1111 c
b10101 Y
1>
#260000
0>
#265000
b10010101 0
b10010101 3"
b10010101 C"
b10101 4
b10101 1"
b10101 E"
b10000010 '
b10000010 Q
b10000010 D"
b1011100101100110110011000000000000000000000000000000000000000000000000000000000000000000000000000000000000000000000000000000000 )
b1011100101100110110011000000000000000000000000000000000000000000000000000000000000000000000000000000000000000000000000000000000 \
b1011100101100110110011000000000000000000000000000000000000000000000000000000000000000000000000000000000000000000000000000000000 M"
b10010111011001110110001101110100010101111100101001001010110101101101001001111001011001100001010010111100010001110110101000001110 (
b10010111011001110110001101110100010101111100101001001010110101101101001001111001011001100001010010111100010001110110101000001110 ]
b10010111011001110110001101110100010101111100101001001010110101101101001001111001011001100001010010111100010001110110101000001110 N"
b10011 X
1/
b1111 c
b10110 Y
1>
#270000
0>
#275000
b1110010111001011001101100110000000000000000000000000000000000000000000000000000000000000000000000000000000000000000000000000 )
b1110010111001011001101100110000000000000000000000000000000000000000000000000000000000000000000000000000000000000000000000000 \
b1110010111001011001101100110000000000000000000000000000000000000000000000000000000000000000000000000000000000000000000000000 M"
b10000010100101110110011101100011011101000101011111001010010010101101011011010010011110010110011000010100101111000100011101101010 (
b10000010100101110110011101100011011101000101011111001010010010101101011011010010011110010110011000010100101111000100011101101010 ]
b10000010100101110110011101100011011101000101011111001010010010101101011011010010011110010110011000010100101111000100011101101010 N"
b10100 X
1/
b10110 4
b10110 1"
b10110 E"
b10010101 '
b10010101 Q
b10010101 D"
b110100 0
b110100 3"
b110100 C"
b1111 c
b10111 Y
1>
#280000
0>
#285000
b1 0
b1 3"
b1 C"
b10111 4
b10111 1"
b10111 E"
b110100 '
b110100 Q
b110100 D"
b1101010000011100101110010110011011001100000000000000000000000000000000000000000000000000000000000000000000000000000000000000000 )
b1101010000011100101110010110011011001100000000000000000000000000000000000000000000000000000000000000000000000000000000000000000 \
b1101010000011100101110010110011011001100000000000000000000000000000000000000000000000000000000000000000000000000000000000000000 M"
b10010101100000101001011101100111011000110111010001010111110010100100101011010110110100100111100101100110000101001011110001000111 (
b10010101100000101001011101100111011000110111010001010111110010100100101011010110110100100111100101100110000101001011110001000111 ]
b10010101100000101001011101100111011000110111010001010111110010100100101011010110110100100111100101100110000101001011110001000111 N"
b10101 X
1/
b1111 c
b11000 Y
1>
#290000
0>
#295000
b1000111011010100000111001011100101100110110011000000000000000000000000000000000000000000000000000000000000000000000000000000000 )
b1000111011010100000111001011100101100110110011000000000000000000000000000000000000000000000000000000000000000000000000000000000 \
b1000111011010100000111001011100101100110110011000000000000000000000000000000000000000000000000000000000000000000000000000000000 M"
b110100100101011000001010010111011001110110001101110100010101111100101001001010110101101101001001111001011001100001010010111100 (
b110100100101011000001010010111011001110110001101110100010101111100101001001010110101101101001001111001011001100001010010111100 ]
b110100100101011000001010010111011001110110001101110100010101111100101001001010110101101101001001111001011001100001010010111100 N"
b10110 X
1/
b11000 4
b11000 1"
b11000 E"
b1 '
b1 Q
b1 D"
b1010111 0
b1010111 3"
b1010111 C"
b1111 c
b11001 Y
1>
#300000
0>
#305000
b11101011 0
b11101011 3"
b11101011 C"
b11001 4
b11001 1"
b11001 E"
b1010111 '
b1010111 Q
b1010111 D"
b10111100010001110110101000001110010111001011001101100110000000000000000000000000000000000000000000000000000000000000000000000000 )
b10111100010001110110101000001110010111001011001101100110000000000000000000000000000000000000000000000000000000000000000000000000 \
b10111100010001110110101000001110010111001011001101100110000000000000000000000000000000000000000000000000000000000000000000000000 M"
b1001101001001010110000010100101110110011101100011011101000101011111001010010010101101011011010010011110010110011000010100 (
b1001101001001010110000010100101110110011101100011011101000101011111001010010010101101011011010010011110010110011000010100 ]
b1001101001001010110000010100101110110011101100011011101000101011111001010010010101101011011010010011110010110011000010100 N"
b10111 X
1/
b1111 c
b11010 Y
1>
#310000
0>
#315000
b10100101111000100011101101010000011100101110010110011011001100000000000000000000000000000000000000000000000000000000000000000 )
b10100101111000100011101101010000011100101110010110011011001100000000000000000000000000000000000000000000000000000000000000000 \
b10100101111000100011101101010000011100101110010110011011001100000000000000000000000000000000000000000000000000000000000000000 M"
b1010111000000010011010010010101100000101001011101100111011000110111010001010111110010100100101011010110110100100111100101100110 (
b1010111000000010011010010010101100000101001011101100111011000110111010001010111110010100100101011010110110100100111100101100110 ]
b1010111000000010011010010010101100000101001011101100111011000110111010001010111110010100100101011010110110100100111100101100110 N"
b11000 X
1/
b11010 4
b11010 1"
b11010 E"
b11101011 '
b11101011 Q
b11101011 D"
b10011101 0
b10011101 3"
b10011101 C"
b1111 c
b11011 Y
1>
#320000
0>
#325000
b100101 0
b100101 3"
b100101 C"
b11011 4
b11011 1"
b11011 E"
b10011101 '
b10011101 Q
b10011101 D"
b1100110000101001011110001000111011010100000111001011100101100110110011000000000000000000000000000000000000000000000000000000000 )
b1100110000101001011110001000111011010100000111001011100101100110110011000000000000000000000000000000000000000000000000000000000 \
b1100110000101001011110001000111011010100000111001011100101100110110011000000000000000000000000000000000000000000000000000000000 M"
b11101011010101110000000100110100100101011000001010010111011001110110001101110100010101111100101001001010110101101101001001111001 (
b11101011010101110000000100110100100101011000001010010111011001110110001101110100010101111100101001001010110101101101001001111001 ]
b11101011010101110000000100110100100101011000001010010111011001110110001101110100010101111100101001001010110101101101001001111001 N"
b11001 X
1/
b1111 c
b11100 Y
1>
#330000
0>
#335000
b1111001011001100001010010111100010001110110101000001110010111001011001101100110000000000000000000000000000000000000000000000000 )
b1111001011001100001010010111100010001110110101000001110010111001011001101100110000000000000000000000000000000000000000000000000 \
b1111001011001100001010010111100010001110110101000001110010111001011001101100110000000000000000000000000000000000000000000000000 M"
b10011101111010110101011100000001001101001001010110000010100101110110011101100011011101000101011111001010010010101101011011010010 (
b10011101111010110101011100000001001101001001010110000010100101110110011101100011011101000101011111001010010010101101011011010010 ]
b10011101111010110101011100000001001101001001010110000010100101110110011101100011011101000101011111001010010010101101011011010010 N"
b11010 X
1/
b11100 4
b11100 1"
b11100 E"
b100101 '
b100101 Q
b100101 D"
b10000001 0
b10000001 3"
b10000001 C"
b1111 c
b11101 Y
1>
#340000
0>
#345000
b10111111 0
b10111111 3"
b10111111 C"
b11101 4
b11101 1"
b11101 E"
b10000001 '
b10000001 Q
b10000001 D"
b11010010011110010110011000010100101111000100011101101010000011100101110010110011011001100000000000000000000000000000000000000000 )
b11010010011110010110011000010100101111000100011101101010000011100101110010110011011001100000000000000000000000000000000000000000 \
b11010010011110010110011000010100101111000100011101101010000011100101110010110011011001100000000000000000000000000000000000000000 M"
b100101100111011110101101010111000000010011010010010101100000101001011101100111011000110111010001010111110010100100101011010110 (
b100101100111011110101101010111000000010011010010010101100000101001011101100111011000110111010001010111110010100100101011010110 ]
b100101100111011110101101010111000000010011010010010101100000101001011101100111011000110111010001010111110010100100101011010110 N"
b11011 X
1/
b1111 c
b11110 Y
1>
#350000
0>
#355000
b11010110110100100111100101100110000101001011110001000111011010100000111001011100101100110110011000000000000000000000000000000000 )
b11010110110100100111100101100110000101001011110001000111011010100000111001011100101100110110011000000000000000000000000000000000 \
b11010110110100100111100101100110000101001011110001000111011010100000111001011100101100110110011000000000000000000000000000000000 M"
b10000001001001011001110111101011010101110000000100110100100101011000001010010111011001110110001101110100010101111100101001001010 (
b10000001001001011001110111101011010101110000000100110100100101011000001010010111011001110110001101110100010101111100101001001010 ]
b10000001001001011001110111101011010101110000000100110100100101011000001010010111011001110110001101110100010101111100101001001010 N"
b11100 X
1/
b11110 4
b11110 1"
b11110 E"
b10111111 '
b10111111 Q
b10111111 D"
b10111011 0
b10111011 3"
b10111011 C"
b1111 c
b11111 Y
1>
#360000
0>
#365000
b10100 0
b10100 3"
b10100 C"
b11111 4
b11111 1"
b11111 E"
b10111011 '
b10111011 Q
b10111011 D"
b1001010110101101101001001111001011001100001010010111100010001110110101000001110010111001011001101100110000000000000000000000000 )
b1001010110101101101001001111001011001100001010010111100010001110110101000001110010111001011001101100110000000000000000000000000 \
b1001010110101101101001001111001011001100001010010111100010001110110101000001110010111001011001101100110000000000000000000000000 M"
b10111111100000010010010110011101111010110101011100000001001101001001010110000010100101110110011101100011011101000101011111001010 (
b10111111100000010010010110011101111010110101011100000001001101001001010110000010100101110110011101100011011101000101011111001010 ]
b10111111100000010010010110011101111010110101011100000001001101001001010110000010100101110110011101100011011101000101011111001010 N"
b11101 X
1/
b1111 c
b100000 Y
1>
#370000
0>
#375000
b11001010010010101101011011010010011110010110011000010100101111000100011101101010000011100101110010110011011001100000000000000000 )
b11001010010010101101011011010010011110010110011000010100101111000100011101101010000011100101110010110011011001100000000000000000 \
b11001010010010101101011011010010011110010110011000010100101111000100011101101010000011100101110010110011011001100000000000000000 M"
b10111011101111111000000100100101100111011110101101010111000000010011010010010101100000101001011101100111011000110111010001010111 (
b10111011101111111000000100100101100111011110101101010111000000010011010010010101100000101001011101100111011000110111010001010111 ]
b10111011101111111000000100100101100111011110101101010111000000010011010010010101100000101001011101100111011000110111010001010111 N"
b11110 X
1/
b100000 4
b100000 1"
b100000 E"
b10100 '
b10100 Q
b10100 D"
b10100000 0
b10100000 3"
b10100000 C"
b1111 c
b100001 Y
1>
#380000
0>
