Complete Processor/system_verification.vcd
$date
	Mon Jul 13 11:34:54 2026
$end
$version
	Icarus Verilog
$end
$timescale
	1ps
$end
$scope module system_verification_tb $end
$var wire 1 ! next_win_req $end
$var wire 1 " nxt_rd_req $end
$var wire 1 # nxt_rd_req_gated0 $end
$var wire 1 $ nxt_rd_req_gated1 $end
$var wire 1 % wr_valid_1 $end
$var wire 1 & wr_valid_0 $end
$var wire 72 ' window [71:0] $end
$var wire 1 ( win_valid $end
$var wire 1 ) win_set_done $end
$var wire 1 * rows_rdy $end
$var wire 8 + row_in_stream [7:0] $end
$var wire 128 , row_c_reg [127:0] $end
$var wire 128 - row_b_reg [127:0] $end
$var wire 128 . row_a_reg [127:0] $end
$var wire 24 / proc_img_rd_data1 [23:0] $end
$var wire 24 0 proc_img_rd_data0 [23:0] $end
$var wire 1 1 proc_img_mem_full1 $end
$var wire 1 2 proc_img_mem_full0 $end
$var wire 1 3 pool_done1 $end
$var wire 1 4 pool_done0 $end
$var wire 1 5 pixel_valid $end
$var wire 1 6 pixel_req $end
$var wire 8 7 pixel_in [7:0] $end
$var wire 1 8 nxt_rd_req2 $end
$var wire 1 9 nxt_rd_req1 $end
$var wire 1 : nxt_rd_req0 $end
$var wire 1 ; nop2_valid $end
$var wire 44 < nop2 [43:0] $end
$var wire 1 = nop1_valid $end
$var wire 44 > nop1 [43:0] $end
$var wire 1 ? nop0_valid $end
$var wire 44 @ nop0 [43:0] $end
$var wire 24 A neuron_input_mux [23:0] $end
$var wire 1 B max_valid1 $end
$var wire 1 C max_valid0 $end
$var wire 24 D max_out1 [23:0] $end
$var wire 24 E max_out0 [23:0] $end
$var wire 8 F img_rd_addr [7:0] $end
$var wire 1 G ft_rd_valid1 $end
$var wire 1 H ft_rd_valid0 $end
$var wire 1 I ft_rd_data_valid1 $end
$var wire 1 J ft_rd_data_valid0 $end
$var wire 24 K ft_rd_data1 [23:0] $end
$var wire 24 L ft_rd_data0 [23:0] $end
$var wire 8 M ft_rd_addr1 [7:0] $end
$var wire 8 N ft_rd_addr0 [7:0] $end
$var wire 1 O ft_mem_full1 $end
$var wire 1 P ft_mem_full0 $end
$var wire 24 Q final_sum1 [23:0] $end
$var wire 24 R final_sum0 [23:0] $end
$var wire 24 S conv_sum1 [23:0] $end
$var wire 24 T conv_sum0 [23:0] $end
$var reg 1 U clk $end
$var reg 1 V lb_st $end
$var reg 1 W rst $end
$var integer 32 X conv_errors0 [31:0] $end
$var integer 32 Y conv_errors1 [31:0] $end
$var integer 32 Z conv_idx0 [31:0] $end
$var integer 32 [ conv_idx1 [31:0] $end
$var integer 32 \ pool_errors0 [31:0] $end
$var integer 32 ] pool_errors1 [31:0] $end
$var integer 32 ^ relu_errors0 [31:0] $end
$var integer 32 _ relu_errors1 [31:0] $end
$scope module arg_max_0 $end
$var wire 1 U clk $end
$var wire 1 W rst $end
$var wire 1 ; score3_valid $end
$var wire 44 ` score3 [43:0] $end
$var wire 1 = score2_valid $end
$var wire 44 a score2 [43:0] $end
$var wire 1 ? score1_valid $end
$var wire 44 b score1 [43:0] $end
$var reg 1 c clear $end
$var reg 44 d score1_latch [43:0] $end
$var reg 1 e score1_valid_latch $end
$var reg 44 f score2_latch [43:0] $end
$var reg 1 g score2_valid_latch $end
$var reg 44 h score3_latch [43:0] $end
$var reg 1 i score3_valid_latch $end
$upscope $end
$scope module tb_ReLU_0 $end
$var wire 24 j in [23:0] $end
$var reg 24 k out [23:0] $end
$upscope $end
$scope module tb_ReLU_1 $end
$var wire 24 l in [23:0] $end
$var reg 24 m out [23:0] $end
$upscope $end
$scope module tb_feature_mat_mem_0 $end
$var wire 1 U clk $end
$var wire 1 W rst $end
$var wire 24 n wr_data [23:0] $end
$var wire 1 & wr_valid $end
$var wire 1 H rd_valid $end
$var wire 8 o rd_addr [7:0] $end
$var reg 1 P mem_full $end
$var reg 24 p rd_data [23:0] $end
$var reg 1 J rd_data_valid $end
$var reg 8 q wr_addr [7:0] $end
$var integer 32 r i [31:0] $end
$upscope $end
$scope module tb_feature_mat_mem_1 $end
$var wire 1 U clk $end
$var wire 1 W rst $end
$var wire 24 s wr_data [23:0] $end
$var wire 1 % wr_valid $end
$var wire 1 G rd_valid $end
$var wire 8 t rd_addr [7:0] $end
$var reg 1 O mem_full $end
$var reg 24 u rd_data [23:0] $end
$var reg 1 I rd_data_valid $end
$var reg 8 v wr_addr [7:0] $end
$var integer 32 w i [31:0] $end
$upscope $end
$scope module tb_lb $end
$var wire 1 U clk $end
$var wire 1 V lb_st $end
$var wire 1 W rst $end
$var wire 1 ) win_set_done $end
$var wire 8 x row_in_stream [7:0] $end
$var wire 1 5 pixel_valid $end
$var parameter 32 y LOAD_ABC $end
$var parameter 32 z LOAD_D $end
$var parameter 32 { SHIFT_ROWS $end
$var parameter 32 | WAIT_FOR_EVENT $end
$var reg 1 } img_done $end
$var reg 2 ~ next_state [1:0] $end
$var reg 1 6 pixel_req $end
$var reg 6 !" recv_cnt [5:0] $end
$var reg 6 "" req_cnt [5:0] $end
$var reg 128 #" row_a_reg [127:0] $end
$var reg 1 $" row_abc_valid $end
$var reg 128 %" row_b_reg [127:0] $end
$var reg 128 &" row_c_reg [127:0] $end
$var reg 4 '" row_cnt [3:0] $end
$var reg 128 (" row_d_reg [127:0] $end
$var reg 1 )" row_d_valid $end
$var reg 1 * rows_rdy $end
$var reg 2 *" state [1:0] $end
$var reg 1 +" win_done_latch $end
$var integer 32 ," i [31:0] $end
$upscope $end
$scope module tb_mac_0 $end
$var wire 1 U clk $end
$var wire 1 W rst $end
$var wire 1 ( win_valid $end
$var wire 72 -" pixel_win [71:0] $end
$var wire 24 ." mac2_sum [23:0] $end
$var wire 24 /" mac1_sum [23:0] $end
$var wire 24 0" mac0_sum [23:0] $end
$var parameter 344 1" BIAS_FILE_NAME $end
$var parameter 32 2" DONE $end
$var parameter 32 3" IDLE $end
$var parameter 32 4" LOAD0 $end
$var parameter 32 5" LOAD1 $end
$var parameter 32 6" LOAD2 $end
$var parameter 32 7" SUM $end
$var parameter 32 8" WAIT $end
$var parameter 368 9" WT_FILE_NAME $end
$var reg 1 :" clear $end
$var reg 24 ;" conv_sum [23:0] $end
$var reg 8 <" mac0_pixel [7:0] $end
$var reg 1 =" mac0_valid_in $end
$var reg 12 >" mac0_weight [11:0] $end
$var reg 8 ?" mac1_pixel [7:0] $end
$var reg 1 @" mac1_valid_in $end
$var reg 12 A" mac1_weight [11:0] $end
$var reg 8 B" mac2_pixel [7:0] $end
$var reg 1 C" mac2_valid_in $end
$var reg 12 D" mac2_weight [11:0] $end
$var reg 3 E" next_state [2:0] $end
$var reg 1 F" next_win_req $end
$var reg 3 G" state [2:0] $end
$var reg 1 & wr_valid $end
$scope module mac0 $end
$var wire 1 :" clear $end
$var wire 1 U clk $end
$var wire 8 H" pixel [7:0] $end
$var wire 1 W rst $end
$var wire 24 I" sum [23:0] $end
$var wire 1 =" valid_in $end
$var wire 12 J" weight [11:0] $end
$var wire 24 K" w_ext [23:0] $end
$var wire 24 L" p_ext [23:0] $end
$var reg 24 M" sum_reg [23:0] $end
$upscope $end
$scope module mac1 $end
$var wire 1 :" clear $end
$var wire 1 U clk $end
$var wire 8 N" pixel [7:0] $end
$var wire 1 W rst $end
$var wire 24 O" sum [23:0] $end
$var wire 1 @" valid_in $end
$var wire 12 P" weight [11:0] $end
$var wire 24 Q" w_ext [23:0] $end
$var wire 24 R" p_ext [23:0] $end
$var reg 24 S" sum_reg [23:0] $end
$upscope $end
$scope module mac2 $end
$var wire 1 :" clear $end
$var wire 1 U clk $end
$var wire 8 T" pixel [7:0] $end
$var wire 1 W rst $end
$var wire 24 U" sum [23:0] $end
$var wire 1 C" valid_in $end
$var wire 12 V" weight [11:0] $end
$var wire 24 W" w_ext [23:0] $end
$var wire 24 X" p_ext [23:0] $end
$var reg 24 Y" sum_reg [23:0] $end
$upscope $end
$upscope $end
$scope module tb_mac_1 $end
$var wire 1 U clk $end
$var wire 1 W rst $end
$var wire 1 ( win_valid $end
$var wire 72 Z" pixel_win [71:0] $end
$var wire 24 [" mac2_sum [23:0] $end
$var wire 24 \" mac1_sum [23:0] $end
$var wire 24 ]" mac0_sum [23:0] $end
$var parameter 344 ^" BIAS_FILE_NAME $end
$var parameter 32 _" DONE $end
$var parameter 32 `" IDLE $end
$var parameter 32 a" LOAD0 $end
$var parameter 32 b" LOAD1 $end
$var parameter 32 c" LOAD2 $end
$var parameter 32 d" SUM $end
$var parameter 32 e" WAIT $end
$var parameter 368 f" WT_FILE_NAME $end
$var reg 1 g" clear $end
$var reg 24 h" conv_sum [23:0] $end
$var reg 8 i" mac0_pixel [7:0] $end
$var reg 1 j" mac0_valid_in $end
$var reg 12 k" mac0_weight [11:0] $end
$var reg 8 l" mac1_pixel [7:0] $end
$var reg 1 m" mac1_valid_in $end
$var reg 12 n" mac1_weight [11:0] $end
$var reg 8 o" mac2_pixel [7:0] $end
$var reg 1 p" mac2_valid_in $end
$var reg 12 q" mac2_weight [11:0] $end
$var reg 3 r" next_state [2:0] $end
$var reg 1 s" next_win_req $end
$var reg 3 t" state [2:0] $end
$var reg 1 % wr_valid $end
$scope module mac0 $end
$var wire 1 g" clear $end
$var wire 1 U clk $end
$var wire 8 u" pixel [7:0] $end
$var wire 1 W rst $end
$var wire 24 v" sum [23:0] $end
$var wire 1 j" valid_in $end
$var wire 12 w" weight [11:0] $end
$var wire 24 x" w_ext [23:0] $end
$var wire 24 y" p_ext [23:0] $end
$var reg 24 z" sum_reg [23:0] $end
$upscope $end
$scope module mac1 $end
$var wire 1 g" clear $end
$var wire 1 U clk $end
$var wire 8 {" pixel [7:0] $end
$var wire 1 W rst $end
$var wire 24 |" sum [23:0] $end
$var wire 1 m" valid_in $end
$var wire 12 }" weight [11:0] $end
$var wire 24 ~" w_ext [23:0] $end
$var wire 24 !# p_ext [23:0] $end
$var reg 24 "# sum_reg [23:0] $end
$upscope $end
$scope module mac2 $end
$var wire 1 g" clear $end
$var wire 1 U clk $end
$var wire 8 ## pixel [7:0] $end
$var wire 1 W rst $end
$var wire 24 $# sum [23:0] $end
$var wire 1 p" valid_in $end
$var wire 12 %# weight [11:0] $end
$var wire 24 &# w_ext [23:0] $end
$var wire 24 '# p_ext [23:0] $end
$var reg 24 (# sum_reg [23:0] $end
$upscope $end
$upscope $end
$scope module tb_max_pool_0 $end
$var wire 1 U clk $end
$var wire 24 )# feature_data [23:0] $end
$var wire 1 J feature_valid $end
$var wire 1 W rst $end
$var wire 24 *# next_max [23:0] $end
$var reg 24 +# current_max [23:0] $end
$var reg 24 ,# max_out [23:0] $end
$var reg 1 C max_valid $end
$var reg 3 -# sample_count [2:0] $end
$upscope $end
$scope module tb_max_pool_1 $end
$var wire 1 U clk $end
$var wire 24 .# feature_data [23:0] $end
$var wire 1 I feature_valid $end
$var wire 1 W rst $end
$var wire 24 /# next_max [23:0] $end
$var reg 24 0# current_max [23:0] $end
$var reg 24 1# max_out [23:0] $end
$var reg 1 B max_valid $end
$var reg 3 2# sample_count [2:0] $end
$upscope $end
$scope module tb_mem $end
$var wire 1 U clk $end
$var wire 1 W rst $end
$var wire 8 3# rd_addr [7:0] $end
$var parameter 328 4# FILE_NAME $end
$var reg 8 5# pixel_out [7:0] $end
$upscope $end
$scope module tb_neuron_0 $end
$var wire 1 U clk $end
$var wire 24 6# neuron_input [23:0] $end
$var wire 1 W rst $end
$var wire 1 7# start_mac $end
$var parameter 344 8# BIAS_FILE_NAME $end
$var parameter 368 9# WT_FILE_NAME $end
$var reg 44 :# acc [43:0] $end
$var reg 1 ;# clear $end
$var reg 1 <# mac_en $end
$var reg 44 =# neuron_output [43:0] $end
$var reg 1 : nxt_rd_req $end
$var reg 1 ? output_valid $end
$var reg 7 ># req_cnt [6:0] $end
$var reg 7 ?# wt_addr [6:0] $end
$upscope $end
$scope module tb_neuron_1 $end
$var wire 1 U clk $end
$var wire 24 @# neuron_input [23:0] $end
$var wire 1 W rst $end
$var wire 1 A# start_mac $end
$var parameter 344 B# BIAS_FILE_NAME $end
$var parameter 368 C# WT_FILE_NAME $end
$var reg 44 D# acc [43:0] $end
$var reg 1 E# clear $end
$var reg 1 F# mac_en $end
$var reg 44 G# neuron_output [43:0] $end
$var reg 1 9 nxt_rd_req $end
$var reg 1 = output_valid $end
$var reg 7 H# req_cnt [6:0] $end
$var reg 7 I# wt_addr [6:0] $end
$upscope $end
$scope module tb_neuron_2 $end
$var wire 1 U clk $end
$var wire 24 J# neuron_input [23:0] $end
$var wire 1 W rst $end
$var wire 1 K# start_mac $end
$var parameter 344 L# BIAS_FILE_NAME $end
$var parameter 368 M# WT_FILE_NAME $end
$var reg 44 N# acc [43:0] $end
$var reg 1 O# clear $end
$var reg 1 P# mac_en $end
$var reg 44 Q# neuron_output [43:0] $end
$var reg 1 8 nxt_rd_req $end
$var reg 1 ; output_valid $end
$var reg 7 R# req_cnt [6:0] $end
$var reg 7 S# wt_addr [6:0] $end
$upscope $end
$scope module tb_pool_addr_gen_0 $end
$var wire 1 U clk $end
$var wire 1 P ft_mem_full $end
$var wire 1 W rst $end
$var wire 8 T# base_addr [7:0] $end
$var parameter 32 U# PHASE0 $end
$var parameter 32 V# PHASE1 $end
$var parameter 32 W# PHASE2 $end
$var parameter 32 X# PHASE3 $end
$var parameter 32 Y# WAIT_STATE $end
$var reg 4 Z# phase [3:0] $end
$var reg 4 [# pool_col [3:0] $end
$var reg 1 4 pool_done $end
$var reg 4 \# pool_row [3:0] $end
$var reg 8 ]# rd_addr [7:0] $end
$var reg 1 H rd_valid $end
$upscope $end
$scope module tb_pool_addr_gen_1 $end
$var wire 1 U clk $end
$var wire 1 O ft_mem_full $end
$var wire 1 W rst $end
$var wire 8 ^# base_addr [7:0] $end
$var parameter 32 _# PHASE0 $end
$var parameter 32 `# PHASE1 $end
$var parameter 32 a# PHASE2 $end
$var parameter 32 b# PHASE3 $end
$var parameter 32 c# WAIT_STATE $end
$var reg 4 d# phase [3:0] $end
$var reg 4 e# pool_col [3:0] $end
$var reg 1 3 pool_done $end
$var reg 4 f# pool_row [3:0] $end
$var reg 8 g# rd_addr [7:0] $end
$var reg 1 G rd_valid $end
$upscope $end
$scope module tb_proc_img_mem_0 $end
$var wire 1 U clk $end
$var wire 1 # nxt_rd_req $end
$var wire 1 W rst $end
$var wire 24 h# wr_data [23:0] $end
$var wire 1 C wr_valid $end
$var reg 1 2 mem_full $end
$var reg 7 i# rd_addr [6:0] $end
$var reg 24 j# rd_data [23:0] $end
$var reg 7 k# wr_addr [6:0] $end
$var integer 32 l# i [31:0] $end
$upscope $end
$scope module tb_proc_img_mem_1 $end
$var wire 1 U clk $end
$var wire 1 $ nxt_rd_req $end
$var wire 1 W rst $end
$var wire 24 m# wr_data [23:0] $end
$var wire 1 B wr_valid $end
$var reg 1 1 mem_full $end
$var reg 7 n# rd_addr [6:0] $end
$var reg 24 o# rd_data [23:0] $end
$var reg 7 p# wr_addr [6:0] $end
$var integer 32 q# i [31:0] $end
$upscope $end
$scope module tb_rdr $end
$var wire 1 U clk $end
$var wire 8 r# pixel_in [7:0] $end
$var wire 1 6 pixel_req $end
$var wire 1 W rst $end
$var reg 8 s# pixel_out [7:0] $end
$var reg 1 5 pixel_valid $end
$var reg 8 t# rd_addr [7:0] $end
$var reg 1 u# valid_pipe $end
$upscope $end
$scope module tb_win_gen $end
$var wire 1 U clk $end
$var wire 1 ! next_win_req $end
$var wire 128 v# row_a_reg [127:0] $end
$var wire 128 w# row_b_reg [127:0] $end
$var wire 128 x# row_c_reg [127:0] $end
$var wire 1 * rows_rdy $end
$var wire 1 W rst $end
$var wire 4 y# current_i [3:0] $end
$var reg 4 z# i [3:0] $end
$var reg 1 {# processing $end
$var reg 1 |# wait_for_mac_req $end
$var reg 1 ) win_set_done $end
$var reg 1 ( win_valid $end
$var reg 72 }# window [71:0] $end
$upscope $end
$scope begin $ivl_for_loop0 $end
$var integer 32 ~# i [31:0] $end
$upscope $end
$scope begin $ivl_for_loop1 $end
$var integer 32 !$ j [31:0] $end
$upscope $end
$upscope $end
$enddefinitions $end
$comment Show the parameter values. $end
$dumpall
b100 c#
b11 b#
b10 a#
b1 `#
b0 _#
b100 Y#
b11 X#
b10 W#
b1 V#
b0 U#
b101110001011100010111101000011011011110110110101110000011011000110010101110100011001010010000001010000011100100110111101100011011001010111001101110011011011110111001000101111011011010110010101101101010111110110011001101001011011000110010101110011001011110111011101100101011010010110011101101000011101000111001101011111011011100011001000101110011011010110010101101101 M#
b101110001011100010111101000011011011110110110101110000011011000110010101110100011001010010000001010000011100100110111101100011011001010111001101110011011011110111001000101111011011010110010101101101010111110110011001101001011011000110010101110011001011110110001001101001011000010111001101011111011011100011001000101110011011010110010101101101 L#
b101110001011100010111101000011011011110110110101110000011011000110010101110100011001010010000001010000011100100110111101100011011001010111001101110011011011110111001000101111011011010110010101101101010111110110011001101001011011000110010101110011001011110111011101100101011010010110011101101000011101000111001101011111011011100011000100101110011011010110010101101101 C#
b101110001011100010111101000011011011110110110101110000011011000110010101110100011001010010000001010000011100100110111101100011011001010111001101110011011011110111001000101111011011010110010101101101010111110110011001101001011011000110010101110011001011110110001001101001011000010111001101011111011011100011000100101110011011010110010101101101 B#
b101110001011100010111101000011011011110110110101110000011011000110010101110100011001010010000001010000011100100110111101100011011001010111001101110011011011110111001000101111011011010110010101101101010111110110011001101001011011000110010101110011001011110111011101100101011010010110011101101000011101000111001101011111011011100011000000101110011011010110010101101101 9#
b101110001011100010111101000011011011110110110101110000011011000110010101110100011001010010000001010000011100100110111101100011011001010111001101110011011011110111001000101111011011010110010101101101010111110110011001101001011011000110010101110011001011110110001001101001011000010111001101011111011011100011000000101110011011010110010101101101 8#
b10111000101110001011110100001101101111011011010111000001101100011001010111010001100101001000000101000001110010011011110110001101100101011100110111001101101111011100100010111101101101011001010110110101011111011001100110100101101100011001010111001100101111011010010110110101100001011001110110010100101110011011010110010101101101 4#
b101110001011100010111101000011011011110110110101110000011011000110010101110100011001010010000001010000011100100110111101100011011001010111001101110011011011110111001000101111011011010110010101101101010111110110011001101001011011000110010101110011001011110111011101100101011010010110011101101000011101000111001101011111011000110011000100101110011011010110010101101101 f"
b100 e"
b101 d"
b11 c"
b10 b"
b1 a"
b0 `"
b110 _"
b101110001011100010111101000011011011110110110101110000011011000110010101110100011001010010000001010000011100100110111101100011011001010111001101110011011011110111001000101111011011010110010101101101010111110110011001101001011011000110010101110011001011110110001001101001011000010111001101011111011000110011000100101110011011010110010101101101 ^"
b101110001011100010111101000011011011110110110101110000011011000110010101110100011001010010000001010000011100100110111101100011011001010111001101110011011011110111001000101111011011010110010101101101010111110110011001101001011011000110010101110011001011110111011101100101011010010110011101101000011101000111001101011111011000110011000000101110011011010110010101101101 9"
b100 8"
b101 7"
b11 6"
b10 5"
b1 4"
b0 3"
b110 2"
b101110001011100010111101000011011011110110110101110000011011000110010101110100011001010010000001010000011100100110111101100011011001010111001101110011011011110111001000101111011011010110010101101101010111110110011001101001011011000110010101110011001011110110001001101001011000010111001101011111011000110011000000101110011011010110010101101101 1"
b0 |
b11 {
b10 z
b1 y
$end
#0
$dumpvars
bx !$
bx ~#
b0 }#
0|#
0{#
b0 z#
b0 y#
bx x#
bx w#
bx v#
xu#
bx t#
bx s#
bx r#
b110001 q#
b0 p#
bx o#
b0 n#
b0 m#
b110001 l#
b0 k#
bx j#
b0 i#
b0 h#
b0 g#
b0 f#
b0 e#
b0 d#
b0 ^#
b0 ]#
b0 \#
b0 [#
b0 Z#
b0 T#
bx S#
bx R#
bx Q#
xP#
xO#
b11111111111111111111111111110111010100000000 N#
0K#
bx J#
bx I#
bx H#
bx G#
xF#
xE#
b11000001100000000 D#
0A#
bx @#
bx ?#
bx >#
bx =#
x<#
x;#
b11111111111111111111111111110100010100000000 :#
07#
bx 6#
bx 5#
bx 3#
b0 2#
b0 1#
b0 0#
b0 /#
b0 .#
b0 -#
b0 ,#
b0 +#
b0 *#
b0 )#
b0 (#
b0 '#
b0 &#
b0 %#
b0 $#
b0 ##
b0 "#
b0 !#
b0 ~"
b0 }"
b0 |"
b0 {"
b0 z"
b0 y"
b0 x"
b0 w"
b0 v"
b0 u"
b0 t"
0s"
b0 r"
b0 q"
0p"
b0 o"
b0 n"
0m"
b0 l"
b0 k"
0j"
b0 i"
bx h"
0g"
b0 ]"
b0 \"
b0 ["
b0 Z"
b0 Y"
b0 X"
b0 W"
b0 V"
b0 U"
b0 T"
b0 S"
b0 R"
b0 Q"
b0 P"
b0 O"
b0 N"
b0 M"
b0 L"
b0 K"
b0 J"
b0 I"
b0 H"
b0 G"
0F"
b0 E"
b0 D"
0C"
b0 B"
b0 A"
0@"
b0 ?"
b0 >"
0="
b0 <"
bx ;"
0:"
b0 0"
b0 /"
b0 ."
b0 -"
bx ,"
x+"
bx *"
x)"
bx ("
bx '"
bx &"
bx %"
x$"
bx #"
bx ""
bx !"
b0 ~
x}
bx x
b11000100 w
b0 v
b0 u
b0 t
bx s
b11000100 r
b0 q
b0 p
b0 o
bx n
bx m
bx l
bx k
bx j
xi
bx h
xg
bx f
xe
bx d
xc
bx b
bx a
bx `
b0 _
b0 ^
b0 ]
b0 \
b0 [
b0 Z
b0 Y
b0 X
1W
0V
0U
bx T
bx S
bx R
bx Q
0P
0O
b0 N
b0 M
b0 L
b0 K
0J
0I
0H
0G
bx F
b0 E
b0 D
0C
0B
bx A
bx @
x?
bx >
x=
bx <
x;
0:
09
08
bx 7
x6
x5
04
03
02
01
bx 0
bx /
bx .
bx -
bx ,
bx +
x*
0)
0(
b0 '
0&
0%
0$
0#
0"
0!
$end
#5000
b0 R
b0 k
b0 n
b0 Q
b0 m
b0 s
b0 7
b0 5#
b0 r#
0u#
05
b0 +
b0 x
b0 s#
b0 F
b0 3#
b0 t#
0+"
b0 *"
0}
0)"
0$"
0*
06
b0 '"
b0 !"
b0 ""
b0 ("
b0 ,
b0 &"
b0 x#
b0 -
b0 %"
b0 w#
b0 .
b0 #"
b0 v#
b0 T
b0 j
b0 ;"
b0 S
b0 l
b0 h"
0<#
b0 >#
b0 ?#
0?
b0 @
b0 b
b0 =#
0;#
0F#
b0 H#
b0 I#
0=
b0 >
b0 a
b0 G#
0E#
0P#
b0 R#
b0 S#
0;
b0 <
b0 `
b0 Q#
0O#
0c
0i
0g
0e
b11000100 r
b110001 l#
b11000100 w
b110001 q#
1U
#10000
0U
#15000
b110001 q#
b11000100 w
b110001 l#
b11000100 r
1U
#20000
0U
#25000
1U
0W
#30000
0U
#35000
1U
#40000
0U
#45000
b1 *"
b1 ~
1U
1V
#50000
0U
#55000
b1 ""
16
1U
0V
#60000
0U
#65000
b1 F
b1 3#
b1 t#
1u#
b10 ""
16
1U
#70000
0U
#75000
b11 ""
16
b10 F
b10 3#
b10 t#
15
1U
#80000
0U
#85000
b11 F
b11 3#
b11 t#
b1 !"
b100 ""
16
b1111 ,"
1U
#90000
0U
#95000
b10 !"
b101 ""
16
b100 F
b100 3#
b100 t#
b1111 ,"
1U
#100000
0U
#105000
b101 F
b101 3#
b101 t#
b11 !"
b110 ""
16
b1111 ,"
1U
#110000
0U
#115000
b100 !"
b111 ""
16
b110 F
b110 3#
b110 t#
b1111 ,"
1U
#120000
0U
#125000
b111 F
b111 3#
b111 t#
b101 !"
b1000 ""
16
b1111 ,"
1U
#130000
0U
#135000
b110 !"
b1001 ""
16
b1000 F
b1000 3#
b1000 t#
b1111 ,"
1U
#140000
0U
#145000
b1001 F
b1001 3#
b1001 t#
b111 !"
b1010 ""
16
b1111 ,"
1U
#150000
0U
#155000
b1000 !"
b1011 ""
16
b1010 F
b1010 3#
b1010 t#
b1111 ,"
1U
#160000
0U
#165000
b1011 F
b1011 3#
b1011 t#
b1001 !"
b1100 ""
16
b1111 ,"
1U
#170000
0U
#175000
b1010 !"
b1101 ""
16
b1100 F
b1100 3#
b1100 t#
b1111 ,"
1U
#180000
0U
#185000
b1101 F
b1101 3#
b1101 t#
b1011 !"
b1110 ""
16
b1111 ,"
1U
#190000
0U
#195000
b1100 !"
b1111 ""
16
b1110 F
b1110 3#
b1110 t#
b1111 ,"
1U
#200000
0U
#205000
b1111 F
b1111 3#
b1111 t#
b1101 !"
b10000 ""
16
b1111 ,"
1U
#210000
0U
#215000
b1110 !"
b10001 ""
16
b10000 F
b10000 3#
b10000 t#
b1111 ,"
1U
#220000
0U
#225000
b10001 F
b10001 3#
b10001 t#
b1111 !"
b10010 ""
16
b1111 ,"
1U
#230000
0U
#235000
b10000 !"
b10011 ""
16
b10010 F
b10010 3#
b10010 t#
b1111 ,"
1U
#240000
0U
#245000
b10011 F
b10011 3#
b10011 t#
b10001 !"
b10100 ""
16
b1111 ,"
1U
#250000
0U
#255000
b10010 !"
b10101 ""
16
b10100 F
b10100 3#
b10100 t#
b1111 ,"
1U
#260000
0U
#265000
b10101 F
b10101 3#
b10101 t#
b10011 !"
b10110 ""
16
b1111 ,"
1U
#270000
0U
#275000
b10100 !"
b10111 ""
16
b10110 F
b10110 3#
b10110 t#
b10 7
b10 5#
b10 r#
b1111 ,"
1U
#280000
0U
#285000
b1111 7
b1111 5#
b1111 r#
b10111 F
b10111 3#
b10111 t#
b10 +
b10 x
b10 s#
b10101 !"
b11000 ""
16
b1111 ,"
1U
#290000
0U
#295000
b10000000000000000000000000000000000000000000000000000000000000000000000000000000000000000000000000000000000000000000000000 ,
b10000000000000000000000000000000000000000000000000000000000000000000000000000000000000000000000000000000000000000000000000 &"
b10000000000000000000000000000000000000000000000000000000000000000000000000000000000000000000000000000000000000000000000000 x#
b10110 !"
b11001 ""
16
b11000 F
b11000 3#
b11000 t#
b1111 +
b1111 x
b1111 s#
b11100 7
b11100 5#
b11100 r#
b1111 ,"
1U
#300000
0U
#305000
b11011 7
b11011 5#
b11011 r#
b11001 F
b11001 3#
b11001 t#
b11100 +
b11100 x
b11100 s#
b1111000000100000000000000000000000000000000000000000000000000000000000000000000000000000000000000000000000000000000000000000 ,
b1111000000100000000000000000000000000000000000000000000000000000000000000000000000000000000000000000000000000000000000000000 &"
b1111000000100000000000000000000000000000000000000000000000000000000000000000000000000000000000000000000000000000000000000000 x#
b10111 !"
b11010 ""
16
b1111 ,"
1U
#310000
0U
#315000
b11100000011110000001000000000000000000000000000000000000000000000000000000000000000000000000000000000000000000000000000000000 ,
b11100000011110000001000000000000000000000000000000000000000000000000000000000000000000000000000000000000000000000000000000000 &"
b11100000011110000001000000000000000000000000000000000000000000000000000000000000000000000000000000000000000000000000000000000 x#
b11000 !"
b11011 ""
16
b11010 F
b11010 3#
b11010 t#
b11011 +
b11011 x
b11011 s#
b1010 7
b1010 5#
b1010 r#
b1111 ,"
1U
#320000
0U
#325000
b0 7
b0 5#
b0 r#
b11011 F
b11011 3#
b11011 t#
b1010 +
b1010 x
b1010 s#
b11011000111000000111100000010000000000000000000000000000000000000000000000000000000000000000000000000000000000000000000000000 ,
b11011000111000000111100000010000000000000000000000000000000000000000000000000000000000000000000000000000000000000000000000000 &"
b11011000111000000111100000010000000000000000000000000000000000000000000000000000000000000000000000000000000000000000000000000 x#
b11001 !"
b11100 ""
16
b1111 ,"
1U
#330000
0U
#335000
b1010000110110001110000001111000000100000000000000000000000000000000000000000000000000000000000000000000000000000000000000000 ,
b1010000110110001110000001111000000100000000000000000000000000000000000000000000000000000000000000000000000000000000000000000 &"
b1010000110110001110000001111000000100000000000000000000000000000000000000000000000000000000000000000000000000000000000000000 x#
b11010 !"
b11101 ""
16
b11100 F
b11100 3#
b11100 t#
b0 +
b0 x
b0 s#
b1111 ,"
1U
#340000
0U
#345000
b11101 F
b11101 3#
b11101 t#
b10100001101100011100000011110000001000000000000000000000000000000000000000000000000000000000000000000000000000000000 ,
b10100001101100011100000011110000001000000000000000000000000000000000000000000000000000000000000000000000000000000000 &"
b10100001101100011100000011110000001000000000000000000000000000000000000000000000000000000000000000000000000000000000 x#
b11011 !"
b11110 ""
16
b1111 ,"
1U
#350000
0U
#355000
b101000011011000111000000111100000010000000000000000000000000000000000000000000000000000000000000000000000000 ,
b101000011011000111000000111100000010000000000000000000000000000000000000000000000000000000000000000000000000 &"
b101000011011000111000000111100000010000000000000000000000000000000000000000000000000000000000000000000000000 x#
b11100 !"
b11111 ""
16
b11110 F
b11110 3#
b11110 t#
b1111 ,"
1U
#360000
0U
#365000
b11111 F
b11111 3#
b11111 t#
b1010000110110001110000001111000000100000000000000000000000000000000000000000000000000000000000000000 ,
b1010000110110001110000001111000000100000000000000000000000000000000000000000000000000000000000000000 &"
b1010000110110001110000001111000000100000000000000000000000000000000000000000000000000000000000000000 x#
b11101 !"
b100000 ""
16
b1111 ,"
1U
#370000
0U
#375000
b10100001101100011100000011110000001000000000000000000000000000000000000000000000000000000000 ,
b10100001101100011100000011110000001000000000000000000000000000000000000000000000000000000000 &"
b10100001101100011100000011110000001000000000000000000000000000000000000000000000000000000000 x#
b11110 !"
b100001 ""
16
b100000 F
b100000 3#
b100000 t#
b1111 ,"
1U
#380000
0U
#385000
b100001 F
b100001 3#
b100001 t#
b101000011011000111000000111100000010000000000000000000000000000000000000000000000000 ,
b101000011011000111000000111100000010000000000000000000000000000000000000000000000000 &"
b101000011011000111000000111100000010000000000000000000000000000000000000000000000000 x#
b11111 !"
b100010 ""
16
b1111 ,"
1U
#390000
0U
#395000
b1010000110110001110000001111000000100000000000000000000000000000000000000000 ,
b1010000110110001110000001111000000100000000000000000000000000000000000000000 &"
b1010000110110001110000001111000000100000000000000000000000000000000000000000 x#
b100000 !"
b100011 ""
16
b100010 F
b100010 3#
b100010 t#
b1111 ,"
1U
#400000
0U
