Complete Processor/system_verification.vcd
$date
	Thu Jul 09 21:27:11 2026
$end
$version
	Icarus Verilog
$end
$timescale
	1ps
$end
$scope module system_verification_tb $end
$var wire 1 ! next_win_req $end
$var wire 1 " nxt_rd_req $end
$var wire 1 # nxt_rd_req_gated0 $end
$var wire 1 $ nxt_rd_req_gated1 $end
$var wire 1 % wr_valid_1 $end
$var wire 1 & wr_valid_0 $end
$var wire 72 ' window [71:0] $end
$var wire 1 ( win_valid $end
$var wire 1 ) win_set_done $end
$var wire 108 * weights1 [107:0] $end
$var wire 108 + weights0 [107:0] $end
$var wire 1 , rows_rdy $end
$var wire 8 - row_in_stream [7:0] $end
$var wire 128 . row_c_reg [127:0] $end
$var wire 128 / row_b_reg [127:0] $end
$var wire 128 0 row_a_reg [127:0] $end
$var wire 24 1 proc_img_rd_data1 [23:0] $end
$var wire 24 2 proc_img_rd_data0 [23:0] $end
$var wire 1 3 proc_img_mem_full1 $end
$var wire 1 4 proc_img_mem_full0 $end
$var wire 1 5 pool_done1 $end
$var wire 1 6 pool_done0 $end
$var wire 1 7 pixel_valid $end
$var wire 1 8 pixel_req $end
$var wire 8 9 pixel_in [7:0] $end
$var wire 1 : nxt_rd_req2 $end
$var wire 1 ; nxt_rd_req1 $end
$var wire 1 < nxt_rd_req0 $end
$var wire 1 = nop2_valid $end
$var wire 44 > nop2 [43:0] $end
$var wire 1 ? nop1_valid $end
$var wire 44 @ nop1 [43:0] $end
$var wire 1 A nop0_valid $end
$var wire 44 B nop0 [43:0] $end
$var wire 24 C neuron_input_mux [23:0] $end
$var wire 1 D max_valid1 $end
$var wire 1 E max_valid0 $end
$var wire 24 F max_out1 [23:0] $end
$var wire 24 G max_out0 [23:0] $end
$var wire 8 H img_rd_addr [7:0] $end
$var wire 1 I ft_rd_valid1 $end
$var wire 1 J ft_rd_valid0 $end
$var wire 1 K ft_rd_data_valid1 $end
$var wire 1 L ft_rd_data_valid0 $end
$var wire 24 M ft_rd_data1 [23:0] $end
$var wire 24 N ft_rd_data0 [23:0] $end
$var wire 8 O ft_rd_addr1 [7:0] $end
$var wire 8 P ft_rd_addr0 [7:0] $end
$var wire 1 Q ft_mem_full1 $end
$var wire 1 R ft_mem_full0 $end
$var wire 24 S final_sum1 [23:0] $end
$var wire 24 T final_sum0 [23:0] $end
$var wire 24 U conv_sum1 [23:0] $end
$var wire 24 V conv_sum0 [23:0] $end
$var wire 12 W bias1 [11:0] $end
$var wire 12 X bias0 [11:0] $end
$var reg 1 Y clk $end
$var reg 1 Z lb_st $end
$var reg 1 [ rst $end
$var integer 32 \ conv_errors0 [31:0] $end
$var integer 32 ] conv_errors1 [31:0] $end
$var integer 32 ^ conv_idx0 [31:0] $end
$var integer 32 _ conv_idx1 [31:0] $end
$var integer 32 ` pool_errors0 [31:0] $end
$var integer 32 a pool_errors1 [31:0] $end
$var integer 32 b relu_errors0 [31:0] $end
$var integer 32 c relu_errors1 [31:0] $end
$scope module arg_max_0 $end
$var wire 1 Y clk $end
$var wire 1 [ rst $end
$var wire 1 = score3_valid $end
$var wire 44 d score3 [43:0] $end
$var wire 1 ? score2_valid $end
$var wire 44 e score2 [43:0] $end
$var wire 1 A score1_valid $end
$var wire 44 f score1 [43:0] $end
$var reg 1 g clear $end
$var reg 44 h score1_latch [43:0] $end
$var reg 1 i score1_valid_latch $end
$var reg 44 j score2_latch [43:0] $end
$var reg 1 k score2_valid_latch $end
$var reg 44 l score3_latch [43:0] $end
$var reg 1 m score3_valid_latch $end
$upscope $end
$scope module tb_ReLU_0 $end
$var wire 24 n in [23:0] $end
$var reg 24 o out [23:0] $end
$upscope $end
$scope module tb_ReLU_1 $end
$var wire 24 p in [23:0] $end
$var reg 24 q out [23:0] $end
$upscope $end
$scope module tb_feature_mat_mem_0 $end
$var wire 1 Y clk $end
$var wire 1 [ rst $end
$var wire 24 r wr_data [23:0] $end
$var wire 1 & wr_valid $end
$var wire 1 J rd_valid $end
$var wire 8 s rd_addr [7:0] $end
$var reg 1 R mem_full $end
$var reg 24 t rd_data [23:0] $end
$var reg 1 L rd_data_valid $end
$var reg 8 u wr_addr [7:0] $end
$var integer 32 v i [31:0] $end
$upscope $end
$scope module tb_feature_mat_mem_1 $end
$var wire 1 Y clk $end
$var wire 1 [ rst $end
$var wire 24 w wr_data [23:0] $end
$var wire 1 % wr_valid $end
$var wire 1 I rd_valid $end
$var wire 8 x rd_addr [7:0] $end
$var reg 1 Q mem_full $end
$var reg 24 y rd_data [23:0] $end
$var reg 1 K rd_data_valid $end
$var reg 8 z wr_addr [7:0] $end
$var integer 32 { i [31:0] $end
$upscope $end
$scope module tb_lb $end
$var wire 1 Y clk $end
$var wire 1 Z lb_st $end
$var wire 1 [ rst $end
$var wire 1 ) win_set_done $end
$var wire 8 | row_in_stream [7:0] $end
$var wire 1 7 pixel_valid $end
$var parameter 32 } LOAD_ABC $end
$var parameter 32 ~ LOAD_D $end
$var parameter 32 !" SHIFT_ROWS $end
$var parameter 32 "" WAIT_FOR_EVENT $end
$var reg 1 #" img_done $end
$var reg 2 $" next_state [1:0] $end
$var reg 1 8 pixel_req $end
$var reg 6 %" recv_cnt [5:0] $end
$var reg 6 &" req_cnt [5:0] $end
$var reg 128 '" row_a_reg [127:0] $end
$var reg 1 (" row_abc_valid $end
$var reg 128 )" row_b_reg [127:0] $end
$var reg 128 *" row_c_reg [127:0] $end
$var reg 4 +" row_cnt [3:0] $end
$var reg 128 ," row_d_reg [127:0] $end
$var reg 1 -" row_d_valid $end
$var reg 1 , rows_rdy $end
$var reg 2 ." state [1:0] $end
$var reg 1 /" win_done_latch $end
$var integer 32 0" i [31:0] $end
$upscope $end
$scope module tb_mac_0 $end
$var wire 1 Y clk $end
$var wire 1 [ rst $end
$var wire 1 ( win_valid $end
$var wire 108 1" weights [107:0] $end
$var wire 72 2" pixel_win [71:0] $end
$var wire 24 3" mac2_sum [23:0] $end
$var wire 24 4" mac1_sum [23:0] $end
$var wire 24 5" mac0_sum [23:0] $end
$var wire 12 6" bias [11:0] $end
$var parameter 32 7" DONE $end
$var parameter 32 8" IDLE $end
$var parameter 32 9" LOAD0 $end
$var parameter 32 :" LOAD1 $end
$var parameter 32 ;" LOAD2 $end
$var parameter 32 <" SUM $end
$var parameter 32 =" WAIT $end
$var reg 1 >" clear $end
$var reg 24 ?" conv_sum [23:0] $end
$var reg 8 @" mac0_pixel [7:0] $end
$var reg 1 A" mac0_valid_in $end
$var reg 12 B" mac0_weight [11:0] $end
$var reg 8 C" mac1_pixel [7:0] $end
$var reg 1 D" mac1_valid_in $end
$var reg 12 E" mac1_weight [11:0] $end
$var reg 8 F" mac2_pixel [7:0] $end
$var reg 1 G" mac2_valid_in $end
$var reg 12 H" mac2_weight [11:0] $end
$var reg 3 I" next_state [2:0] $end
$var reg 1 J" next_win_req $end
$var reg 3 K" state [2:0] $end
$var reg 1 & wr_valid $end
$scope module mac0 $end
$var wire 1 >" clear $end
$var wire 1 Y clk $end
$var wire 8 L" pixel [7:0] $end
$var wire 1 [ rst $end
$var wire 24 M" sum [23:0] $end
$var wire 1 A" valid_in $end
$var wire 12 N" weight [11:0] $end
$var wire 24 O" w_ext [23:0] $end
$var wire 24 P" p_ext [23:0] $end
$var reg 24 Q" sum_reg [23:0] $end
$upscope $end
$scope module mac1 $end
$var wire 1 >" clear $end
$var wire 1 Y clk $end
$var wire 8 R" pixel [7:0] $end
$var wire 1 [ rst $end
$var wire 24 S" sum [23:0] $end
$var wire 1 D" valid_in $end
$var wire 12 T" weight [11:0] $end
$var wire 24 U" w_ext [23:0] $end
$var wire 24 V" p_ext [23:0] $end
$var reg 24 W" sum_reg [23:0] $end
$upscope $end
$scope module mac2 $end
$var wire 1 >" clear $end
$var wire 1 Y clk $end
$var wire 8 X" pixel [7:0] $end
$var wire 1 [ rst $end
$var wire 24 Y" sum [23:0] $end
$var wire 1 G" valid_in $end
$var wire 12 Z" weight [11:0] $end
$var wire 24 [" w_ext [23:0] $end
$var wire 24 \" p_ext [23:0] $end
$var reg 24 ]" sum_reg [23:0] $end
$upscope $end
$upscope $end
$scope module tb_mac_1 $end
$var wire 1 Y clk $end
$var wire 1 [ rst $end
$var wire 1 ( win_valid $end
$var wire 108 ^" weights [107:0] $end
$var wire 72 _" pixel_win [71:0] $end
$var wire 24 `" mac2_sum [23:0] $end
$var wire 24 a" mac1_sum [23:0] $end
$var wire 24 b" mac0_sum [23:0] $end
$var wire 12 c" bias [11:0] $end
$var parameter 32 d" DONE $end
$var parameter 32 e" IDLE $end
$var parameter 32 f" LOAD0 $end
$var parameter 32 g" LOAD1 $end
$var parameter 32 h" LOAD2 $end
$var parameter 32 i" SUM $end
$var parameter 32 j" WAIT $end
$var reg 1 k" clear $end
$var reg 24 l" conv_sum [23:0] $end
$var reg 8 m" mac0_pixel [7:0] $end
$var reg 1 n" mac0_valid_in $end
$var reg 12 o" mac0_weight [11:0] $end
$var reg 8 p" mac1_pixel [7:0] $end
$var reg 1 q" mac1_valid_in $end
$var reg 12 r" mac1_weight [11:0] $end
$var reg 8 s" mac2_pixel [7:0] $end
$var reg 1 t" mac2_valid_in $end
$var reg 12 u" mac2_weight [11:0] $end
$var reg 3 v" next_state [2:0] $end
$var reg 1 w" next_win_req $end
$var reg 3 x" state [2:0] $end
$var reg 1 % wr_valid $end
$scope module mac0 $end
$var wire 1 k" clear $end
$var wire 1 Y clk $end
$var wire 8 y" pixel [7:0] $end
$var wire 1 [ rst $end
$var wire 24 z" sum [23:0] $end
$var wire 1 n" valid_in $end
$var wire 12 {" weight [11:0] $end
$var wire 24 |" w_ext [23:0] $end
$var wire 24 }" p_ext [23:0] $end
$var reg 24 ~" sum_reg [23:0] $end
$upscope $end
$scope module mac1 $end
$var wire 1 k" clear $end
$var wire 1 Y clk $end
$var wire 8 !# pixel [7:0] $end
$var wire 1 [ rst $end
$var wire 24 "# sum [23:0] $end
$var wire 1 q" valid_in $end
$var wire 12 ## weight [11:0] $end
$var wire 24 $# w_ext [23:0] $end
$var wire 24 %# p_ext [23:0] $end
$var reg 24 &# sum_reg [23:0] $end
$upscope $end
$scope module mac2 $end
$var wire 1 k" clear $end
$var wire 1 Y clk $end
$var wire 8 '# pixel [7:0] $end
$var wire 1 [ rst $end
$var wire 24 (# sum [23:0] $end
$var wire 1 t" valid_in $end
$var wire 12 )# weight [11:0] $end
$var wire 24 *# w_ext [23:0] $end
$var wire 24 +# p_ext [23:0] $end
$var reg 24 ,# sum_reg [23:0] $end
$upscope $end
$upscope $end
$scope module tb_max_pool_0 $end
$var wire 1 Y clk $end
$var wire 24 -# feature_data [23:0] $end
$var wire 1 L feature_valid $end
$var wire 1 [ rst $end
$var wire 24 .# next_max [23:0] $end
$var reg 24 /# current_max [23:0] $end
$var reg 24 0# max_out [23:0] $end
$var reg 1 E max_valid $end
$var reg 3 1# sample_count [2:0] $end
$upscope $end
$scope module tb_max_pool_1 $end
$var wire 1 Y clk $end
$var wire 24 2# feature_data [23:0] $end
$var wire 1 K feature_valid $end
$var wire 1 [ rst $end
$var wire 24 3# next_max [23:0] $end
$var reg 24 4# current_max [23:0] $end
$var reg 24 5# max_out [23:0] $end
$var reg 1 D max_valid $end
$var reg 3 6# sample_count [2:0] $end
$upscope $end
$scope module tb_mem $end
$var wire 1 Y clk $end
$var wire 1 [ rst $end
$var wire 8 7# rd_addr [7:0] $end
$var parameter 72 8# FILE_NAME $end
$var reg 8 9# pixel_out [7:0] $end
$upscope $end
$scope module tb_neuron_0 $end
$var wire 1 Y clk $end
$var wire 24 :# neuron_input [23:0] $end
$var wire 1 [ rst $end
$var wire 1 ;# start_mac $end
$var parameter 88 <# BIAS_FILE_NAME $end
$var parameter 112 =# WT_FILE_NAME $end
$var reg 44 ># acc [43:0] $end
$var reg 1 ?# clear $end
$var reg 1 @# mac_en $end
$var reg 44 A# neuron_output [43:0] $end
$var reg 1 < nxt_rd_req $end
$var reg 1 A output_valid $end
$var reg 7 B# req_cnt [6:0] $end
$var reg 7 C# wt_addr [6:0] $end
$upscope $end
$scope module tb_neuron_1 $end
$var wire 1 Y clk $end
$var wire 24 D# neuron_input [23:0] $end
$var wire 1 [ rst $end
$var wire 1 E# start_mac $end
$var parameter 88 F# BIAS_FILE_NAME $end
$var parameter 112 G# WT_FILE_NAME $end
$var reg 44 H# acc [43:0] $end
$var reg 1 I# clear $end
$var reg 1 J# mac_en $end
$var reg 44 K# neuron_output [43:0] $end
$var reg 1 ; nxt_rd_req $end
$var reg 1 ? output_valid $end
$var reg 7 L# req_cnt [6:0] $end
$var reg 7 M# wt_addr [6:0] $end
$upscope $end
$scope module tb_neuron_2 $end
$var wire 1 Y clk $end
$var wire 24 N# neuron_input [23:0] $end
$var wire 1 [ rst $end
$var wire 1 O# start_mac $end
$var parameter 88 P# BIAS_FILE_NAME $end
$var parameter 112 Q# WT_FILE_NAME $end
$var reg 44 R# acc [43:0] $end
$var reg 1 S# clear $end
$var reg 1 T# mac_en $end
$var reg 44 U# neuron_output [43:0] $end
$var reg 1 : nxt_rd_req $end
$var reg 1 = output_valid $end
$var reg 7 V# req_cnt [6:0] $end
$var reg 7 W# wt_addr [6:0] $end
$upscope $end
$scope module tb_pool_addr_gen_0 $end
$var wire 1 Y clk $end
$var wire 1 R ft_mem_full $end
$var wire 1 [ rst $end
$var wire 8 X# base_addr [7:0] $end
$var parameter 32 Y# PHASE0 $end
$var parameter 32 Z# PHASE1 $end
$var parameter 32 [# PHASE2 $end
$var parameter 32 \# PHASE3 $end
$var parameter 32 ]# WAIT_STATE $end
$var reg 4 ^# phase [3:0] $end
$var reg 4 _# pool_col [3:0] $end
$var reg 1 6 pool_done $end
$var reg 4 `# pool_row [3:0] $end
$var reg 8 a# rd_addr [7:0] $end
$var reg 1 J rd_valid $end
$upscope $end
$scope module tb_pool_addr_gen_1 $end
$var wire 1 Y clk $end
$var wire 1 Q ft_mem_full $end
$var wire 1 [ rst $end
$var wire 8 b# base_addr [7:0] $end
$var parameter 32 c# PHASE0 $end
$var parameter 32 d# PHASE1 $end
$var parameter 32 e# PHASE2 $end
$var parameter 32 f# PHASE3 $end
$var parameter 32 g# WAIT_STATE $end
$var reg 4 h# phase [3:0] $end
$var reg 4 i# pool_col [3:0] $end
$var reg 1 5 pool_done $end
$var reg 4 j# pool_row [3:0] $end
$var reg 8 k# rd_addr [7:0] $end
$var reg 1 I rd_valid $end
$upscope $end
$scope module tb_proc_img_mem_0 $end
$var wire 1 Y clk $end
$var wire 1 # nxt_rd_req $end
$var wire 1 [ rst $end
$var wire 24 l# wr_data [23:0] $end
$var wire 1 E wr_valid $end
$var reg 1 4 mem_full $end
$var reg 7 m# rd_addr [6:0] $end
$var reg 24 n# rd_data [23:0] $end
$var reg 7 o# wr_addr [6:0] $end
$var integer 32 p# i [31:0] $end
$upscope $end
$scope module tb_proc_img_mem_1 $end
$var wire 1 Y clk $end
$var wire 1 $ nxt_rd_req $end
$var wire 1 [ rst $end
$var wire 24 q# wr_data [23:0] $end
$var wire 1 D wr_valid $end
$var reg 1 3 mem_full $end
$var reg 7 r# rd_addr [6:0] $end
$var reg 24 s# rd_data [23:0] $end
$var reg 7 t# wr_addr [6:0] $end
$var integer 32 u# i [31:0] $end
$upscope $end
$scope module tb_rdr $end
$var wire 1 Y clk $end
$var wire 8 v# pixel_in [7:0] $end
$var wire 1 8 pixel_req $end
$var wire 1 [ rst $end
$var reg 8 w# pixel_out [7:0] $end
$var reg 1 7 pixel_valid $end
$var reg 8 x# rd_addr [7:0] $end
$var reg 1 y# valid_pipe $end
$upscope $end
$scope module tb_weight_memory_0 $end
$var parameter 88 z# BIAS_FILE_NAME $end
$var parameter 112 {# WT_FILE_NAME $end
$var reg 12 |# bias [11:0] $end
$var reg 108 }# weights [107:0] $end
$var integer 32 ~# i [31:0] $end
$upscope $end
$scope module tb_weight_memory_1 $end
$var parameter 88 !$ BIAS_FILE_NAME $end
$var parameter 112 "$ WT_FILE_NAME $end
$var reg 12 #$ bias [11:0] $end
$var reg 108 $$ weights [107:0] $end
$var integer 32 %$ i [31:0] $end
$upscope $end
$scope module tb_win_gen $end
$var wire 1 Y clk $end
$var wire 1 ! next_win_req $end
$var wire 128 &$ row_a_reg [127:0] $end
$var wire 128 '$ row_b_reg [127:0] $end
$var wire 128 ($ row_c_reg [127:0] $end
$var wire 1 , rows_rdy $end
$var wire 1 [ rst $end
$var wire 4 )$ current_i [3:0] $end
$var reg 4 *$ i [3:0] $end
$var reg 1 +$ processing $end
$var reg 1 ,$ wait_for_mac_req $end
$var reg 1 ) win_set_done $end
$var reg 1 ( win_valid $end
$var reg 72 -$ window [71:0] $end
$upscope $end
$scope begin $ivl_for_loop0 $end
$var integer 32 .$ i [31:0] $end
$upscope $end
$scope begin $ivl_for_loop1 $end
$var integer 32 /$ j [31:0] $end
$upscope $end
$upscope $end
$enddefinitions $end
$comment Show the parameter values. $end
$dumpall
b111011101100101011010010110011101101000011101000111001101011111011000110011000100101110011011010110010101101101 "$
b110001001101001011000010111001101011111011000110011000100101110011011010110010101101101 !$
b111011101100101011010010110011101101000011101000111001101011111011000110011000000101110011011010110010101101101 {#
b110001001101001011000010111001101011111011000110011000000101110011011010110010101101101 z#
b100 g#
b11 f#
b10 e#
b1 d#
b0 c#
b100 ]#
b11 \#
b10 [#
b1 Z#
b0 Y#
b111011101100101011010010110011101101000011101000111001101011111011011100011001000101110011011010110010101101101 Q#
b110001001101001011000010111001101011111011011100011001000101110011011010110010101101101 P#
b111011101100101011010010110011101101000011101000111001101011111011011100011000100101110011011010110010101101101 G#
b110001001101001011000010111001101011111011011100011000100101110011011010110010101101101 F#
b111011101100101011010010110011101101000011101000111001101011111011011100011000000101110011011010110010101101101 =#
b110001001101001011000010111001101011111011011100011000000101110011011010110010101101101 <#
b11010010110110101100001011001110110010100101110011011010110010101101101 8#
b100 j"
b101 i"
b11 h"
b10 g"
b1 f"
b0 e"
b110 d"
b100 ="
b101 <"
b11 ;"
b10 :"
b1 9"
b0 8"
b110 7"
b0 ""
b11 !"
b10 ~
b1 }
$end
#0
$dumpvars
bx /$
bx .$
b0 -$
0,$
0+$
b0 *$
b0 )$
bx ($
bx '$
bx &$
b1001 %$
b10011001000010100001111100000001000000101001000011010110111010101100000010000111000011010001111111111101 $$
b10 #$
b1001 ~#
b1010111111111010100000001000101000011011011000100010000000101011001111100001010111010001111111010110001 }#
b111111111100 |#
xy#
bx x#
bx w#
bx v#
b110001 u#
b0 t#
bx s#
b0 r#
b0 q#
b110001 p#
b0 o#
bx n#
b0 m#
b0 l#
b0 k#
b0 j#
b0 i#
b0 h#
b0 b#
b0 a#
b0 `#
b0 _#
b0 ^#
b0 X#
bx W#
bx V#
bx U#
xT#
xS#
b11111111111111111111111111110111010100000000 R#
0O#
bx N#
bx M#
bx L#
bx K#
xJ#
xI#
b11000001100000000 H#
0E#
bx D#
bx C#
bx B#
bx A#
x@#
x?#
b11111111111111111111111111110100010100000000 >#
0;#
bx :#
bx 9#
bx 7#
b0 6#
b0 5#
b0 4#
b0 3#
b0 2#
b0 1#
b0 0#
b0 /#
b0 .#
b0 -#
b0 ,#
b0 +#
b0 *#
b0 )#
b0 (#
b0 '#
b0 &#
b0 %#
b0 $#
b0 ##
b0 "#
b0 !#
b0 ~"
b0 }"
b0 |"
b0 {"
b0 z"
b0 y"
b0 x"
0w"
b0 v"
b0 u"
0t"
b0 s"
b0 r"
0q"
b0 p"
b0 o"
0n"
b0 m"
bx l"
0k"
b10 c"
b0 b"
b0 a"
b0 `"
b0 _"
b10011001000010100001111100000001000000101001000011010110111010101100000010000111000011010001111111111101 ^"
b0 ]"
b0 \"
b0 ["
b0 Z"
b0 Y"
b0 X"
b0 W"
b0 V"
b0 U"
b0 T"
b0 S"
b0 R"
b0 Q"
b0 P"
b0 O"
b0 N"
b0 M"
b0 L"
b0 K"
0J"
b0 I"
b0 H"
0G"
b0 F"
b0 E"
0D"
b0 C"
b0 B"
0A"
b0 @"
bx ?"
0>"
b111111111100 6"
b0 5"
b0 4"
b0 3"
b0 2"
b1010111111111010100000001000101000011011011000100010000000101011001111100001010111010001111111010110001 1"
bx 0"
x/"
bx ."
x-"
bx ,"
bx +"
bx *"
bx )"
x("
bx '"
bx &"
bx %"
b0 $"
x#"
bx |
b11000100 {
b0 z
b0 y
b0 x
bx w
b11000100 v
b0 u
b0 t
b0 s
bx r
bx q
bx p
bx o
bx n
xm
bx l
xk
bx j
xi
bx h
xg
bx f
bx e
bx d
b0 c
b0 b
b0 a
b0 `
b0 _
b0 ^
b0 ]
b0 \
1[
0Z
0Y
b111111111100 X
b10 W
bx V
bx U
bx T
bx S
0R
0Q
b0 P
b0 O
b0 N
b0 M
0L
0K
0J
0I
bx H
b0 G
b0 F
0E
0D
bx C
bx B
xA
bx @
x?
bx >
x=
0<
0;
0:
bx 9
x8
x7
06
05
04
03
bx 2
bx 1
bx 0
bx /
bx .
bx -
x,
b1010111111111010100000001000101000011011011000100010000000101011001111100001010111010001111111010110001 +
b10011001000010100001111100000001000000101001000011010110111010101100000010000111000011010001111111111101 *
0)
0(
b0 '
0&
0%
0$
0#
0"
0!
$end
#5000
b0 T
b0 o
b0 r
b0 S
b0 q
b0 w
b0 9
b0 9#
b0 v#
0y#
07
b0 -
b0 |
b0 w#
b0 H
b0 7#
b0 x#
0/"
b0 ."
0#"
0-"
0("
0,
08
b0 +"
b0 %"
b0 &"
b0 ,"
b0 .
b0 *"
b0 ($
b0 /
b0 )"
b0 '$
b0 0
b0 '"
b0 &$
b0 V
b0 n
b0 ?"
b0 U
b0 p
b0 l"
0@#
b0 B#
b0 C#
0A
b0 B
b0 f
b0 A#
0?#
0J#
b0 L#
b0 M#
0?
b0 @
b0 e
b0 K#
0I#
0T#
b0 V#
b0 W#
0=
b0 >
b0 d
b0 U#
0S#
0g
0m
0k
0i
b11000100 v
b110001 p#
b11000100 {
b110001 u#
1Y
#10000
0Y
#15000
b110001 u#
b11000100 {
b110001 p#
b11000100 v
1Y
#20000
0Y
#25000
1Y
0[
#30000
0Y
#35000
1Y
#40000
0Y
#45000
b1 ."
b1 $"
1Y
1Z
#50000
0Y
#55000
b1 &"
18
1Y
0Z
#60000
0Y
#65000
b1 H
b1 7#
b1 x#
1y#
b10 &"
18
1Y
#70000
0Y
#75000
b11 &"
18
b10 H
b10 7#
b10 x#
17
1Y
#80000
0Y
#85000
b11 H
b11 7#
b11 x#
b1 %"
b100 &"
18
b1111 0"
1Y
#90000
0Y
#95000
b10 %"
b101 &"
18
b100 H
b100 7#
b100 x#
b1111 0"
1Y
#100000
0Y
#105000
b101 H
b101 7#
b101 x#
b11 %"
b110 &"
18
b1111 0"
1Y
#110000
0Y
#115000
b100 %"
b111 &"
18
b110 H
b110 7#
b110 x#
b1111 0"
1Y
#120000
0Y
#125000
b111 H
b111 7#
b111 x#
b101 %"
b1000 &"
18
b1111 0"
1Y
#130000
0Y
#135000
b110 %"
b1001 &"
18
b1000 H
b1000 7#
b1000 x#
b1111 0"
1Y
#140000
0Y
#145000
b1001 H
b1001 7#
b1001 x#
b111 %"
b1010 &"
18
b1111 0"
1Y
#150000
0Y
#155000
b1000 %"
b1011 &"
18
b1010 H
b1010 7#
b1010 x#
b1111 0"
1Y
#160000
0Y
#165000
b1011 H
b1011 7#
b1011 x#
b1001 %"
b1100 &"
18
b1111 0"
1Y
#170000
0Y
#175000
b1010 %"
b1101 &"
18
b1100 H
b1100 7#
b1100 x#
b1111 0"
1Y
#180000
0Y
#185000
b1101 H
b1101 7#
b1101 x#
b1011 %"
b1110 &"
18
b1111 0"
1Y
#190000
0Y
#195000
b1100 %"
b1111 &"
18
b1110 H
b1110 7#
b1110 x#
b1111 0"
1Y
#200000
0Y
#205000
b1111 H
b1111 7#
b1111 x#
b1101 %"
b10000 &"
18
b1111 0"
1Y
#210000
0Y
#215000
b1110 %"
b10001 &"
18
b10000 H
b10000 7#
b10000 x#
b1111 0"
1Y
#220000
0Y
#225000
b10001 H
b10001 7#
b10001 x#
b1111 %"
b10010 &"
18
b1111 0"
1Y
#230000
0Y
#235000
b10000 %"
b10011 &"
18
b10010 H
b10010 7#
b10010 x#
b1111 0"
1Y
#240000
0Y
#245000
b10011 H
b10011 7#
b10011 x#
b10001 %"
b10100 &"
18
b1111 0"
1Y
#250000
0Y
#255000
b10010 %"
b10101 &"
18
b10100 H
b10100 7#
b10100 x#
b1111 0"
1Y
#260000
0Y
#265000
b10101 H
b10101 7#
b10101 x#
b10011 %"
b10110 &"
18
b1111 0"
1Y
#270000
0Y
#275000
b10100 %"
b10111 &"
18
b10110 H
b10110 7#
b10110 x#
b10 9
b10 9#
b10 v#
b1111 0"
1Y
#280000
0Y
#285000
b1111 9
b1111 9#
b1111 v#
b10111 H
b10111 7#
b10111 x#
b10 -
b10 |
b10 w#
b10101 %"
b11000 &"
18
b1111 0"
1Y
#290000
0Y
#295000
b10000000000000000000000000000000000000000000000000000000000000000000000000000000000000000000000000000000000000000000000000 .
b10000000000000000000000000000000000000000000000000000000000000000000000000000000000000000000000000000000000000000000000000 *"
b10000000000000000000000000000000000000000000000000000000000000000000000000000000000000000000000000000000000000000000000000 ($
b10110 %"
b11001 &"
18
b11000 H
b11000 7#
b11000 x#
b1111 -
b1111 |
b1111 w#
b11100 9
b11100 9#
b11100 v#
b1111 0"
1Y
#300000
0Y
#305000
b11011 9
b11011 9#
b11011 v#
b11001 H
b11001 7#
b11001 x#
b11100 -
b11100 |
b11100 w#
b1111000000100000000000000000000000000000000000000000000000000000000000000000000000000000000000000000000000000000000000000000 .
b1111000000100000000000000000000000000000000000000000000000000000000000000000000000000000000000000000000000000000000000000000 *"
b1111000000100000000000000000000000000000000000000000000000000000000000000000000000000000000000000000000000000000000000000000 ($
b10111 %"
b11010 &"
18
b1111 0"
1Y
#310000
0Y
#315000
b11100000011110000001000000000000000000000000000000000000000000000000000000000000000000000000000000000000000000000000000000000 .
b11100000011110000001000000000000000000000000000000000000000000000000000000000000000000000000000000000000000000000000000000000 *"
b11100000011110000001000000000000000000000000000000000000000000000000000000000000000000000000000000000000000000000000000000000 ($
b11000 %"
b11011 &"
18
b11010 H
b11010 7#
b11010 x#
b11011 -
b11011 |
b11011 w#
b1010 9
b1010 9#
b1010 v#
b1111 0"
1Y
#320000
0Y
#325000
b0 9
b0 9#
b0 v#
b11011 H
b11011 7#
b11011 x#
b1010 -
b1010 |
b1010 w#
b11011000111000000111100000010000000000000000000000000000000000000000000000000000000000000000000000000000000000000000000000000 .
b11011000111000000111100000010000000000000000000000000000000000000000000000000000000000000000000000000000000000000000000000000 *"
b11011000111000000111100000010000000000000000000000000000000000000000000000000000000000000000000000000000000000000000000000000 ($
b11001 %"
b11100 &"
18
b1111 0"
1Y
#330000
0Y
#335000
b1010000110110001110000001111000000100000000000000000000000000000000000000000000000000000000000000000000000000000000000000000 .
b1010000110110001110000001111000000100000000000000000000000000000000000000000000000000000000000000000000000000000000000000000 *"
b1010000110110001110000001111000000100000000000000000000000000000000000000000000000000000000000000000000000000000000000000000 ($
b11010 %"
b11101 &"
18
b11100 H
b11100 7#
b11100 x#
b0 -
b0 |
b0 w#
b1111 0"
1Y
#340000
0Y
#345000
b11101 H
b11101 7#
b11101 x#
b10100001101100011100000011110000001000000000000000000000000000000000000000000000000000000000000000000000000000000000 .
b10100001101100011100000011110000001000000000000000000000000000000000000000000000000000000000000000000000000000000000 *"
b10100001101100011100000011110000001000000000000000000000000000000000000000000000000000000000000000000000000000000000 ($
b11011 %"
b11110 &"
18
b1111 0"
1Y
#350000
0Y
#355000
b101000011011000111000000111100000010000000000000000000000000000000000000000000000000000000000000000000000000 .
b101000011011000111000000111100000010000000000000000000000000000000000000000000000000000000000000000000000000 *"
b101000011011000111000000111100000010000000000000000000000000000000000000000000000000000000000000000000000000 ($
b11100 %"
b11111 &"
18
b11110 H
b11110 7#
b11110 x#
b1111 0"
1Y
#360000
0Y
#365000
b11111 H
b11111 7#
b11111 x#
b1010000110110001110000001111000000100000000000000000000000000000000000000000000000000000000000000000 .
b1010000110110001110000001111000000100000000000000000000000000000000000000000000000000000000000000000 *"
b1010000110110001110000001111000000100000000000000000000000000000000000000000000000000000000000000000 ($
b11101 %"
b100000 &"
18
b1111 0"
1Y
#370000
0Y
#375000
b10100001101100011100000011110000001000000000000000000000000000000000000000000000000000000000 .
b10100001101100011100000011110000001000000000000000000000000000000000000000000000000000000000 *"
b10100001101100011100000011110000001000000000000000000000000000000000000000000000000000000000 ($
b11110 %"
b100001 &"
18
b100000 H
b100000 7#
b100000 x#
b1111 0"
1Y
#380000
0Y
#385000
b100001 H
b100001 7#
b100001 x#
b101000011011000111000000111100000010000000000000000000000000000000000000000000000000 .
b101000011011000111000000111100000010000000000000000000000000000000000000000000000000 *"
b101000011011000111000000111100000010000000000000000000000000000000000000000000000000 ($
b11111 %"
b100010 &"
18
b1111 0"
1Y
#390000
0Y
#395000
b1010000110110001110000001111000000100000000000000000000000000000000000000000 .
b1010000110110001110000001111000000100000000000000000000000000000000000000000 *"
b1010000110110001110000001111000000100000000000000000000000000000000000000000 ($
b100000 %"
b100011 &"
18
b100010 H
b100010 7#
b100010 x#
b1111 0"
1Y
#400000
0Y
#405000
b100011 H
b100011 7#
b100011 x#
b10100001101100011100000011110000001000000000000000000000000000000000 .
b10100001101100011100000011110000001000000000000000000000000000000000 *"
b10100001101100011100000011110000001000000000000000000000000000000000 ($
b100001 %"
b100100 &"
18
b1111 0"
1Y
#410000
0Y
